"GeneId"	"PC1"	"PC2"	"PC3"	"PC4"	"PC5"	"PC6"
"ENSMUSG00000001700"	{{.*}}0.17664{{.*}}	{{.*}}1.19195{{.*}}	{{.*}}0.08730{{.*}}	{{.*}}0.12514{{.*}}	{{.*}}0.63181{{.*}}	{{.*}}0.16429{{.*}}
"ENSMUSG00000002028"	{{.*}}2.57454{{.*}}	{{.*}}1.85340{{.*}}	{{.*}}0.24213{{.*}}	{{.*}}0.79816{{.*}}	{{.*}}0.40809{{.*}}	{{.*}}0.04961{{.*}}
"ENSMUSG00000002396"	{{.*}}2.04691{{.*}}	{{.*}}0.50464{{.*}}	{{.*}}1.22455{{.*}}	{{.*}}0.06716{{.*}}	{{.*}}0.29061{{.*}}	{{.*}}0.01822{{.*}}
"ENSMUSG00000002733"	{{.*}}2.31688{{.*}}	{{.*}}1.19737{{.*}}	{{.*}}0.02366{{.*}}	{{.*}}0.28258{{.*}}	{{.*}}0.37317{{.*}}	{{.*}}0.13886{{.*}}
"ENSMUSG00000002997"	{{.*}}1.10227{{.*}}	{{.*}}2.27269{{.*}}	{{.*}}0.80420{{.*}}	{{.*}}0.34420{{.*}}	{{.*}}0.38267{{.*}}	{{.*}}0.21791{{.*}}
"ENSMUSG00000003269"	{{.*}}0.11477{{.*}}	{{.*}}1.40263{{.*}}	{{.*}}0.05999{{.*}}	{{.*}}0.14407{{.*}}	{{.*}}0.12733{{.*}}	{{.*}}0.10389{{.*}}
"ENSMUSG00000003308"	{{.*}}2.13499{{.*}}	{{.*}}0.94293{{.*}}	{{.*}}0.14486{{.*}}	{{.*}}0.31714{{.*}}	{{.*}}0.02157{{.*}}	{{.*}}0.14117{{.*}}
"ENSMUSG00000006010"	{{.*}}1.14904{{.*}}	{{.*}}0.57508{{.*}}	{{.*}}0.77721{{.*}}	{{.*}}0.59065{{.*}}	{{.*}}0.20274{{.*}}	{{.*}}0.17437{{.*}}
"ENSMUSG00000006205"	{{.*}}0.95813{{.*}}	{{.*}}0.80939{{.*}}	{{.*}}0.32871{{.*}}	{{.*}}0.33810{{.*}}	{{.*}}0.03930{{.*}}	{{.*}}0.21946{{.*}}
"ENSMUSG00000006638"	{{.*}}0.76440{{.*}}	{{.*}}0.79523{{.*}}	{{.*}}1.35829{{.*}}	{{.*}}0.47383{{.*}}	{{.*}}0.33950{{.*}}	{{.*}}0.15291{{.*}}
"ENSMUSG00000006717"	{{.*}}0.99784{{.*}}	{{.*}}0.01793{{.*}}	{{.*}}1.00586{{.*}}	{{.*}}0.00497{{.*}}	{{.*}}0.02988{{.*}}	{{.*}}0.21057{{.*}}
"ENSMUSG00000009563"	{{.*}}1.63690{{.*}}	{{.*}}0.46388{{.*}}	{{.*}}0.74028{{.*}}	{{.*}}0.05590{{.*}}	{{.*}}0.02018{{.*}}	{{.*}}0.21858{{.*}}
"ENSMUSG00000013076"	{{.*}}0.82023{{.*}}	{{.*}}1.28086{{.*}}	{{.*}}0.20340{{.*}}	{{.*}}0.49985{{.*}}	{{.*}}0.00022{{.*}}	{{.*}}0.22491{{.*}}
"ENSMUSG00000015714"	{{.*}}0.24825{{.*}}	{{.*}}1.13867{{.*}}	{{.*}}0.18798{{.*}}	{{.*}}0.16508{{.*}}	{{.*}}0.06204{{.*}}	{{.*}}0.21237{{.*}}
"ENSMUSG00000015766"	{{.*}}0.08280{{.*}}	{{.*}}1.10078{{.*}}	{{.*}}0.34463{{.*}}	{{.*}}0.45163{{.*}}	{{.*}}0.22234{{.*}}	{{.*}}0.21442{{.*}}
"ENSMUSG00000015839"	{{.*}}0.50770{{.*}}	{{.*}}1.00186{{.*}}	{{.*}}0.63245{{.*}}	{{.*}}0.30632{{.*}}	{{.*}}0.03109{{.*}}	{{.*}}0.15361{{.*}}
"ENSMUSG00000018476"	{{.*}}2.44164{{.*}}	{{.*}}0.92835{{.*}}	{{.*}}0.42746{{.*}}	{{.*}}0.93177{{.*}}	{{.*}}0.20924{{.*}}	{{.*}}0.28858{{.*}}
"ENSMUSG00000019055"	{{.*}}0.87427{{.*}}	{{.*}}0.99730{{.*}}	{{.*}}0.49279{{.*}}	{{.*}}0.12656{{.*}}	{{.*}}0.07547{{.*}}	{{.*}}0.21781{{.*}}
"ENSMUSG00000020048"	{{.*}}0.75189{{.*}}	{{.*}}0.69915{{.*}}	{{.*}}0.41718{{.*}}	{{.*}}0.06407{{.*}}	{{.*}}0.37014{{.*}}	{{.*}}0.23035{{.*}}
"ENSMUSG00000020919"	{{.*}}1.24392{{.*}}	{{.*}}0.69769{{.*}}	{{.*}}0.03987{{.*}}	{{.*}}0.18590{{.*}}	{{.*}}0.17233{{.*}}	{{.*}}0.22232{{.*}}
"ENSMUSG00000020964"	{{.*}}0.26855{{.*}}	{{.*}}1.09324{{.*}}	{{.*}}0.88511{{.*}}	{{.*}}0.46033{{.*}}	{{.*}}0.64688{{.*}}	{{.*}}0.04127{{.*}}
"ENSMUSG00000021000"	{{.*}}0.16596{{.*}}	{{.*}}0.97584{{.*}}	{{.*}}0.37896{{.*}}	{{.*}}0.00764{{.*}}	{{.*}}0.02845{{.*}}	{{.*}}0.15579{{.*}}
"ENSMUSG00000021275"	{{.*}}3.09689{{.*}}	{{.*}}2.35835{{.*}}	{{.*}}0.90995{{.*}}	{{.*}}0.17946{{.*}}	{{.*}}0.40398{{.*}}	{{.*}}0.05946{{.*}}
"ENSMUSG00000022591"	{{.*}}0.18703{{.*}}	{{.*}}0.86741{{.*}}	{{.*}}0.88173{{.*}}	{{.*}}0.14879{{.*}}	{{.*}}0.22309{{.*}}	{{.*}}0.06643{{.*}}
"ENSMUSG00000022671"	{{.*}}0.13435{{.*}}	{{.*}}0.45422{{.*}}	{{.*}}0.66704{{.*}}	{{.*}}0.19828{{.*}}	{{.*}}0.09874{{.*}}	{{.*}}0.23197{{.*}}
"ENSMUSG00000022708"	{{.*}}1.49113{{.*}}	{{.*}}1.89477{{.*}}	{{.*}}0.43598{{.*}}	{{.*}}1.27388{{.*}}	{{.*}}0.43470{{.*}}	{{.*}}0.13696{{.*}}
"ENSMUSG00000022754"	{{.*}}0.04207{{.*}}	{{.*}}1.87953{{.*}}	{{.*}}0.48923{{.*}}	{{.*}}0.37052{{.*}}	{{.*}}0.62861{{.*}}	{{.*}}0.02321{{.*}}
"ENSMUSG00000022817"	{{.*}}0.10238{{.*}}	{{.*}}0.86375{{.*}}	{{.*}}0.23271{{.*}}	{{.*}}0.08050{{.*}}	{{.*}}0.09407{{.*}}	{{.*}}0.22032{{.*}}
"ENSMUSG00000023277"	{{.*}}1.29630{{.*}}	{{.*}}0.17741{{.*}}	{{.*}}1.86249{{.*}}	{{.*}}0.35221{{.*}}	{{.*}}0.57761{{.*}}	{{.*}}0.20549{{.*}}
"ENSMUSG00000023951"	{{.*}}0.54597{{.*}}	{{.*}}1.41891{{.*}}	{{.*}}1.54819{{.*}}	{{.*}}0.03703{{.*}}	{{.*}}0.05196{{.*}}	{{.*}}0.36673{{.*}}
"ENSMUSG00000024187"	{{.*}}0.18719{{.*}}	{{.*}}1.48386{{.*}}	{{.*}}0.18566{{.*}}	{{.*}}0.33197{{.*}}	{{.*}}0.20913{{.*}}	{{.*}}0.17366{{.*}}
"ENSMUSG00000025144"	{{.*}}2.11422{{.*}}	{{.*}}0.44870{{.*}}	{{.*}}1.25477{{.*}}	{{.*}}0.33356{{.*}}	{{.*}}0.14137{{.*}}	{{.*}}0.17207{{.*}}
"ENSMUSG00000025236"	{{.*}}3.07192{{.*}}	{{.*}}0.44695{{.*}}	{{.*}}1.12452{{.*}}	{{.*}}0.14211{{.*}}	{{.*}}0.24276{{.*}}	{{.*}}0.09998{{.*}}
"ENSMUSG00000025241"	{{.*}}0.26724{{.*}}	{{.*}}0.91165{{.*}}	{{.*}}0.10028{{.*}}	{{.*}}0.15160{{.*}}	{{.*}}0.41262{{.*}}	{{.*}}0.04340{{.*}}
"ENSMUSG00000025408"	{{.*}}5.58724{{.*}}	{{.*}}2.91448{{.*}}	{{.*}}1.70420{{.*}}	{{.*}}0.06197{{.*}}	{{.*}}0.58014{{.*}}	{{.*}}0.45819{{.*}}
"ENSMUSG00000025586"	{{.*}}0.52768{{.*}}	{{.*}}2.51059{{.*}}	{{.*}}2.89859{{.*}}	{{.*}}0.56321{{.*}}	{{.*}}0.34625{{.*}}	{{.*}}0.28049{{.*}}
"ENSMUSG00000025665"	{{.*}}0.93871{{.*}}	{{.*}}0.09378{{.*}}	{{.*}}1.36456{{.*}}	{{.*}}0.12404{{.*}}	{{.*}}0.06350{{.*}}	{{.*}}0.25208{{.*}}
"ENSMUSG00000027698"	{{.*}}1.18165{{.*}}	{{.*}}1.23031{{.*}}	{{.*}}0.51748{{.*}}	{{.*}}0.14298{{.*}}	{{.*}}0.14634{{.*}}	{{.*}}0.05223{{.*}}
"ENSMUSG00000027957"	{{.*}}2.31021{{.*}}	{{.*}}0.88923{{.*}}	{{.*}}0.33188{{.*}}	{{.*}}0.08696{{.*}}	{{.*}}0.19237{{.*}}	{{.*}}0.12303{{.*}}
"ENSMUSG00000028019"	{{.*}}2.07421{{.*}}	{{.*}}1.09058{{.*}}	{{.*}}0.02804{{.*}}	{{.*}}0.05929{{.*}}	{{.*}}0.24184{{.*}}	{{.*}}0.08618{{.*}}
"ENSMUSG00000028080"	{{.*}}0.49726{{.*}}	{{.*}}0.78129{{.*}}	{{.*}}0.51527{{.*}}	{{.*}}0.12280{{.*}}	{{.*}}0.02834{{.*}}	{{.*}}0.02080{{.*}}
"ENSMUSG00000028383"	{{.*}}0.78329{{.*}}	{{.*}}1.66785{{.*}}	{{.*}}0.53835{{.*}}	{{.*}}0.60385{{.*}}	{{.*}}0.31897{{.*}}	{{.*}}0.15136{{.*}}
"ENSMUSG00000028559"	{{.*}}0.99403{{.*}}	{{.*}}0.75876{{.*}}	{{.*}}0.05855{{.*}}	{{.*}}0.08154{{.*}}	{{.*}}0.00239{{.*}}	{{.*}}0.28730{{.*}}
"ENSMUSG00000028970"	{{.*}}2.47447{{.*}}	{{.*}}0.99975{{.*}}	{{.*}}0.20943{{.*}}	{{.*}}0.19039{{.*}}	{{.*}}0.15351{{.*}}	{{.*}}0.13345{{.*}}
"ENSMUSG00000030499"	{{.*}}3.21868{{.*}}	{{.*}}1.42397{{.*}}	{{.*}}0.85251{{.*}}	{{.*}}0.41307{{.*}}	{{.*}}0.20544{{.*}}	{{.*}}0.12248{{.*}}
"ENSMUSG00000030551"	{{.*}}2.12996{{.*}}	{{.*}}0.92194{{.*}}	{{.*}}0.35548{{.*}}	{{.*}}0.09512{{.*}}	{{.*}}0.17884{{.*}}	{{.*}}0.12893{{.*}}
"ENSMUSG00000031021"	{{.*}}0.04538{{.*}}	{{.*}}0.54093{{.*}}	{{.*}}0.40518{{.*}}	{{.*}}0.00359{{.*}}	{{.*}}0.01196{{.*}}	{{.*}}0.23982{{.*}}
"ENSMUSG00000031245"	{{.*}}0.65005{{.*}}	{{.*}}0.00031{{.*}}	{{.*}}1.54440{{.*}}	{{.*}}0.45127{{.*}}	{{.*}}0.06543{{.*}}	{{.*}}0.13506{{.*}}
"ENSMUSG00000031273"	{{.*}}2.25796{{.*}}	{{.*}}1.60780{{.*}}	{{.*}}1.37841{{.*}}	{{.*}}0.29179{{.*}}	{{.*}}0.47614{{.*}}	{{.*}}0.15083{{.*}}
"ENSMUSG00000031327"	{{.*}}0.55362{{.*}}	{{.*}}2.56937{{.*}}	{{.*}}0.41235{{.*}}	{{.*}}0.54055{{.*}}	{{.*}}0.49917{{.*}}	{{.*}}0.21255{{.*}}
"ENSMUSG00000031478"	{{.*}}0.89385{{.*}}	{{.*}}1.50510{{.*}}	{{.*}}0.04010{{.*}}	{{.*}}0.03080{{.*}}	{{.*}}0.59479{{.*}}	{{.*}}0.06073{{.*}}
"ENSMUSG00000032228"	{{.*}}0.62977{{.*}}	{{.*}}1.11614{{.*}}	{{.*}}0.82833{{.*}}	{{.*}}0.14074{{.*}}	{{.*}}0.12830{{.*}}	{{.*}}0.07542{{.*}}
"ENSMUSG00000032754"	{{.*}}3.67402{{.*}}	{{.*}}1.91994{{.*}}	{{.*}}1.12689{{.*}}	{{.*}}0.23014{{.*}}	{{.*}}0.11291{{.*}}	{{.*}}0.14432{{.*}}
"ENSMUSG00000035642"	{{.*}}4.73310{{.*}}	{{.*}}1.21520{{.*}}	{{.*}}1.38049{{.*}}	{{.*}}0.47128{{.*}}	{{.*}}0.50813{{.*}}	{{.*}}0.42569{{.*}}
"ENSMUSG00000035914"	{{.*}}2.09934{{.*}}	{{.*}}1.90347{{.*}}	{{.*}}0.99341{{.*}}	{{.*}}0.06199{{.*}}	{{.*}}0.00311{{.*}}	{{.*}}0.14350{{.*}}
"ENSMUSG00000036390"	{{.*}}2.70785{{.*}}	{{.*}}2.56683{{.*}}	{{.*}}1.25068{{.*}}	{{.*}}0.38160{{.*}}	{{.*}}0.12611{{.*}}	{{.*}}0.38353{{.*}}
"ENSMUSG00000036564"	{{.*}}2.22675{{.*}}	{{.*}}2.51753{{.*}}	{{.*}}1.24574{{.*}}	{{.*}}0.65959{{.*}}	{{.*}}0.15728{{.*}}	{{.*}}0.36402{{.*}}
"ENSMUSG00000036686"	{{.*}}1.69855{{.*}}	{{.*}}0.60289{{.*}}	{{.*}}0.68439{{.*}}	{{.*}}0.17625{{.*}}	{{.*}}0.17838{{.*}}	{{.*}}0.18658{{.*}}
"ENSMUSG00000037049"	{{.*}}2.50189{{.*}}	{{.*}}0.59920{{.*}}	{{.*}}0.54928{{.*}}	{{.*}}0.21336{{.*}}	{{.*}}0.12533{{.*}}	{{.*}}0.03736{{.*}}
"ENSMUSG00000037251"	{{.*}}1.72057{{.*}}	{{.*}}2.36238{{.*}}	{{.*}}0.30425{{.*}}	{{.*}}0.22713{{.*}}	{{.*}}0.02269{{.*}}	{{.*}}0.17646{{.*}}
"ENSMUSG00000037295"	{{.*}}1.00485{{.*}}	{{.*}}0.92297{{.*}}	{{.*}}0.39354{{.*}}	{{.*}}0.62444{{.*}}	{{.*}}0.16251{{.*}}	{{.*}}0.02339{{.*}}
"ENSMUSG00000037315"	{{.*}}2.30142{{.*}}	{{.*}}1.02462{{.*}}	{{.*}}0.59047{{.*}}	{{.*}}0.15993{{.*}}	{{.*}}0.55257{{.*}}	{{.*}}0.04900{{.*}}
"ENSMUSG00000037366"	{{.*}}0.94192{{.*}}	{{.*}}0.97373{{.*}}	{{.*}}0.57895{{.*}}	{{.*}}0.24828{{.*}}	{{.*}}0.06642{{.*}}	{{.*}}0.00839{{.*}}
"ENSMUSG00000038296"	{{.*}}1.91892{{.*}}	{{.*}}2.68664{{.*}}	{{.*}}1.30116{{.*}}	{{.*}}0.25798{{.*}}	{{.*}}0.35577{{.*}}	{{.*}}0.05602{{.*}}
"ENSMUSG00000038302"	{{.*}}1.82752{{.*}}	{{.*}}0.80591{{.*}}	{{.*}}0.60758{{.*}}	{{.*}}0.32963{{.*}}	{{.*}}0.32179{{.*}}	{{.*}}0.11495{{.*}}
"ENSMUSG00000038417"	{{.*}}1.40477{{.*}}	{{.*}}0.88092{{.*}}	{{.*}}0.42042{{.*}}	{{.*}}0.27871{{.*}}	{{.*}}0.18023{{.*}}	{{.*}}0.22381{{.*}}
"ENSMUSG00000038563"	{{.*}}0.16300{{.*}}	{{.*}}1.20768{{.*}}	{{.*}}0.07959{{.*}}	{{.*}}0.25183{{.*}}	{{.*}}0.02821{{.*}}	{{.*}}0.17633{{.*}}
"ENSMUSG00000039480"	{{.*}}2.85563{{.*}}	{{.*}}1.54380{{.*}}	{{.*}}0.54361{{.*}}	{{.*}}0.00312{{.*}}	{{.*}}0.09339{{.*}}	{{.*}}0.16399{{.*}}
"ENSMUSG00000039542"	{{.*}}4.80669{{.*}}	{{.*}}0.20823{{.*}}	{{.*}}0.83955{{.*}}	{{.*}}0.13450{{.*}}	{{.*}}0.39898{{.*}}	{{.*}}0.18267{{.*}}
"ENSMUSG00000040302"	{{.*}}1.32771{{.*}}	{{.*}}1.32279{{.*}}	{{.*}}0.55257{{.*}}	{{.*}}0.54671{{.*}}	{{.*}}0.48597{{.*}}	{{.*}}0.04290{{.*}}
"ENSMUSG00000041837"	{{.*}}1.19215{{.*}}	{{.*}}0.99092{{.*}}	{{.*}}0.19863{{.*}}	{{.*}}0.06565{{.*}}	{{.*}}0.04211{{.*}}	{{.*}}0.21795{{.*}}
"ENSMUSG00000042572"	{{.*}}0.16173{{.*}}	{{.*}}1.06417{{.*}}	{{.*}}0.18759{{.*}}	{{.*}}0.02057{{.*}}	{{.*}}0.12361{{.*}}	{{.*}}0.17966{{.*}}
"ENSMUSG00000042594"	{{.*}}1.30118{{.*}}	{{.*}}1.80620{{.*}}	{{.*}}0.61704{{.*}}	{{.*}}0.27814{{.*}}	{{.*}}0.00801{{.*}}	{{.*}}0.02081{{.*}}
"ENSMUSG00000043943"	{{.*}}3.05216{{.*}}	{{.*}}1.58009{{.*}}	{{.*}}0.83151{{.*}}	{{.*}}0.26183{{.*}}	{{.*}}0.14564{{.*}}	{{.*}}0.14758{{.*}}
"ENSMUSG00000045414"	{{.*}}1.33338{{.*}}	{{.*}}0.98848{{.*}}	{{.*}}0.00951{{.*}}	{{.*}}0.39690{{.*}}	{{.*}}0.36571{{.*}}	{{.*}}0.26484{{.*}}
"ENSMUSG00000048490"	{{.*}}1.35615{{.*}}	{{.*}}0.89310{{.*}}	{{.*}}0.06938{{.*}}	{{.*}}0.33657{{.*}}	{{.*}}0.17855{{.*}}	{{.*}}0.21287{{.*}}
"ENSMUSG00000053581"	{{.*}}1.67521{{.*}}	{{.*}}1.60922{{.*}}	{{.*}}0.27701{{.*}}	{{.*}}0.14003{{.*}}	{{.*}}0.11923{{.*}}	{{.*}}0.06171{{.*}}
"ENSMUSG00000056153"	{{.*}}0.53485{{.*}}	{{.*}}1.52272{{.*}}	{{.*}}0.21440{{.*}}	{{.*}}0.06571{{.*}}	{{.*}}0.21526{{.*}}	{{.*}}0.06494{{.*}}
"ENSMUSG00000056214"	{{.*}}1.42531{{.*}}	{{.*}}1.88963{{.*}}	{{.*}}0.66354{{.*}}	{{.*}}0.29955{{.*}}	{{.*}}0.48690{{.*}}	{{.*}}0.10017{{.*}}
"ENSMUSG00000058672"	{{.*}}2.02537{{.*}}	{{.*}}1.24963{{.*}}	{{.*}}0.07657{{.*}}	{{.*}}0.18955{{.*}}	{{.*}}0.09629{{.*}}	{{.*}}0.17224{{.*}}
"ENSMUSG00000059182"	{{.*}}0.13030{{.*}}	{{.*}}0.45267{{.*}}	{{.*}}0.40177{{.*}}	{{.*}}0.08877{{.*}}	{{.*}}0.09164{{.*}}	{{.*}}0.25550{{.*}}
"ENSMUSG00000060450"	{{.*}}0.22039{{.*}}	{{.*}}0.85302{{.*}}	{{.*}}0.95267{{.*}}	{{.*}}0.03224{{.*}}	{{.*}}0.09930{{.*}}	{{.*}}0.10763{{.*}}
"ENSMUSG00000061013"	{{.*}}1.35382{{.*}}	{{.*}}0.17419{{.*}}	{{.*}}1.01220{{.*}}	{{.*}}0.29392{{.*}}	{{.*}}0.09284{{.*}}	{{.*}}0.07921{{.*}}
"ENSMUSG00000067377"	{{.*}}1.65261{{.*}}	{{.*}}1.05612{{.*}}	{{.*}}0.49662{{.*}}	{{.*}}0.08811{{.*}}	{{.*}}0.38072{{.*}}	{{.*}}0.14527{{.*}}
"ENSMUSG00000070044"	{{.*}}0.25047{{.*}}	{{.*}}0.76387{{.*}}	{{.*}}1.15975{{.*}}	{{.*}}0.10471{{.*}}	{{.*}}0.15594{{.*}}	{{.*}}0.09855{{.*}}
"ENSMUSG00000072593"	{{.*}}0.01032{{.*}}	{{.*}}1.12979{{.*}}	{{.*}}1.30173{{.*}}	{{.*}}0.40938{{.*}}	{{.*}}0.40291{{.*}}	{{.*}}0.37998{{.*}}
"ENSMUSG00000075033"	{{.*}}0.11112{{.*}}	{{.*}}0.44908{{.*}}	{{.*}}1.49060{{.*}}	{{.*}}0.11370{{.*}}	{{.*}}0.34836{{.*}}	{{.*}}0.02231{{.*}}
"ENSMUSG00000079659"	{{.*}}0.27937{{.*}}	{{.*}}1.56145{{.*}}	{{.*}}0.10813{{.*}}	{{.*}}0.01658{{.*}}	{{.*}}0.04964{{.*}}	{{.*}}0.22129{{.*}}
"ENSMUSG00000079936"	{{.*}}2.04351{{.*}}	{{.*}}0.75933{{.*}}	{{.*}}0.36825{{.*}}	{{.*}}0.06715{{.*}}	{{.*}}0.22069{{.*}}	{{.*}}0.15927{{.*}}
