RowId	clusterId	clusterProbs	Mean	StDev
13.zvi_1	1	0.0,1.0,0.0,0.0,0.0,0.0	0.0607179	0.00291694
13.zvi_10	1	0.0,1.0,0.0,0.0,0.0,0.0	0.0642856	0.00489155
13.zvi_100	4	0.0,0.0,0.0,0.0,1.0,0.0	0.119424	0.0156506
13.zvi_101	2	0.0,0.0,1.0,0.0,0.0,0.0	0.0955565	0.00767262
13.zvi_102	3	0.0,0.0,0.0,1.0,0.0,0.0	0.112181	0.0219764
13.zvi_103	4	0.0,0.0,0.0,0.0,1.0,0.0	0.0977286	0.0146857
13.zvi_104	2	0.0,0.0,1.0,0.0,0.0,0.0	0.0969456	0.00732563
13.zvi_105	2	0.0,0.0,1.0,0.0,0.0,0.0	0.0795715	0.00645841
13.zvi_106	1	0.0,1.0,0.0,0.0,0.0,0.0	0.0826962	0.0038532
