"ID"	"Members"	"Type"	"Description"
"5050496020_A"	"5050496020_A"	"sample"	"CE-I(1)"
"5050496020_B"	"5050496020_B"	"sample"	"CD-I"
"5050496020_D"	"5050496020_D"	"sample"	"A1D-I"
"5050496020_E"	"5050496020_E"	"sample"	"CE-II"
"5050496020_F"	"5050496020_F"	"sample"	"CD-II"
"5050496020_J"	"5050496020_J"	"sample"	"J1D-I"
"5050496020_K"	"5050496020_K"	"sample"	"J1E-II"
"5050496020_L"	"5050496020_L"	"sample"	"J1D-II"
"4776172037_A"	"4776172037_A"	"sample"	"CE-I(2)"
"4776172037_C"	"4776172037_C"	"sample"	"A1E-I"
