"Vertex"	"title"	"color"	"value"	"newNodeAttr"	"originalID"
"n0"	"New title 1"	""	NA	"new1"	"1"
"n1"	"Title 2"	"red"	3	"new2"	"2"
"n2"	"Title 3"	""	NA	NA	"3"
"n3"	"Title 4"	""	NA	NA	"4"
"n4"	"New title 5"	""	-5	NA	"5"
"n5"	"Title 6"	""	NA	"new6"	"6"
"n6"	"Title 7"	""	NA	NA	"7"
"n7"	"Title 8"	""	NA	NA	"8"
"n8"	"New title 9"	"blue"	NA	"new9"	"9"
