"RowName"	"A1"	"A2"	"B1"	"B2"
6450255	"110.2"	"102.6"	"102.2"	"110.9"
2570615	"119.3"	"120.5"	"118.4"	"125.6"
6370619	"149.9"	"120.1"	"126.2"	127
2600039	"122.5"	"99.5"	"101.7"	"108.7"
2650615	132	"115.2"	"101.5"	"118.2"
5340672	"120.8"	"123.1"	"111.1"	"102.9"
1090041	"124.9"	"113.8"	"98.1"	"136.4"
6380561	"132.3"	"108.4"	"113.8"	"94.1"
7570255	"121.2"	"116.6"	"114.2"	"113.3"
4920477	"131.7"	"141.9"	"115.1"	"119.2"
