.GeneName	AberrationType	CancerType	PeakFrequency	q-value	GenesInPeak
"EGFR"	"amplification"	"all_cancers"	0.3159	1.57e-46	1
"EGFR"	"amplification"	"all_epithelial"	0.4161	5.62e-37	1
"EGFR"	"amplification"	"Lung NSC"	0.4529	9.29e-25	1
"EGFR"	"amplification"	"all_lung"	0.4496	4.39e-23	1
"EGFR"	"amplification"	"Esophageal squamous"	0.7273	7.55e-08	2
"EGFR"	"amplification"	"Breast"	0.3498	0.0318	14
"EGFR"	"deletion"	"Breast"	0.0905	1	660
"EGFR"	"deletion"	"Melanoma"	0.0450	1	862
"EGFR"	"deletion"	"Myeloproliferative disorder"	0.0093	1	862
"AAAS"	"amplification"	"Renal"	0.3254	0.491	347
"AAAS"	"amplification"	"Colorectal"	0.3975	0.762	261
"AAAS"	"deletion"	"Myeloproliferative disorder"	0.0000	1	1001
"USP14"	"deletion"	"all_cancers"	0.1958	0.0896	 4
"USP14"	"deletion"	"Myeloproliferative disorder"	0.0233	0.0412	11
