"ProbeName"	"Chr"	"start"	"end"	"meanProb"	"MSK_00001.txt"	"MSK_00002.txt"	"MSK_00003.txt"
"A_16_P17779997"	6	273710	273769	0	0	0	0
"A_16_P01625623"	6	725702	725761	0	0	0	0
"A_16_P01764390"	6	1291357	1291416	0	0	0	0
"A_16_P17589277"	6	3884208	3884267	0	0	0	0
"A_16_P01627771"	6	7214779	7214833	0	0	0	0
"A_16_P18035349"	6	7454419	7454478	0	0	0	0
"A_16_P17610307"	6	8749335	8749394	0	0	0	0
"A_14_P118132"	6	9608902	9608961	0	0	0	0
"A_16_P01644900"	6	10604506	10604565	0	0	0	0
"A_16_P18092467"	6	12292594	12292653	0	0	0	0
"A_16_P37769285"	6	12401708	12401767	0	0	0	0
"A_16_P17585421"	6	13498348	13498407	0	0	0	0
"A_16_P17965319"	6	14152811	14152870	0	0	0	0
"A_16_P17423894"	6	18366499	18366558	0	0	0	0
"A_16_P17481110"	6	21678961	21679020	0	0	0	0
"A_16_P17663517"	6	22220512	22220571	0	0	0	0
"A_16_P18062979"	6	23441221	23441280	0	0	0	0
"A_16_P17935401"	6	23834266	23834325	0	0	0	0
"A_14_P133752"	6	24390126	24390185	0	0	0	0
"A_14_P133544"	6	25409128	25409187	0	0	0	0
"A_16_P18126459"	6	25988518	25988577	0	0	0	0
"A_16_P17565145"	6	31186972	31187029	0	0	0	0
"A_16_P37780533"	6	34699080	34699139	0	0	0	0
"A_16_P18159774"	6	35479198	35479257	0	0	0	0
"A_16_P01553799"	6	35650509	35650568	0	0	0	0
"A_14_P128985"	6	37388658	37388712	0	0	0	0
"A_16_P17929494"	6	38591052	38591111	0	0	0	0
"A_16_P17650783"	6	38762635	38762694	0	0	0	0
"A_16_P01532940"	6	39874255	39874314	0	0	0	0
"A_16_P38031356"	6	40136625	40136684	0	0	0	0
"A_16_P17833830"	6	40592041	40592100	0	0	0	0
"A_16_P17954585"	6	41266062	41266118	0	0	0	0
"A_16_P17504759"	6	45089935	45089994	0	0	0	0
"A_16_P01836677"	6	47585245	47585304	0	0	0	0
"A_16_P18099904"	6	48158111	48158170	0	0	0	0
"A_16_P17580711"	6	57288447	57288506	0	0	0	0
"A_16_P18090596"	6	62826021	62826080	0	0	0	0
"A_16_P18046831"	6	63917920	63917979	0	0	0	0
"A_16_P18062747"	6	69936875	69936934	0	0	0	0
"A_16_P17901587"	6	71936550	71936609	0	0	0	0
"A_16_P01606784"	6	72144087	72144146	0	0	0	0
"A_16_P01596327"	6	73480219	73480278	0	0	0	0
"A_14_P124006"	6	73662365	73662424	0	0	0	0
"A_16_P38145518"	6	78154564	78154623	0	0	0	0
"A_16_P01687957"	6	78699868	78699927	0	0	0	0
"A_16_P17641993"	6	80692644	80692703	0	0	0	0
"A_16_P37964927"	6	83301479	83301538	0	0	0	0
"A_14_P121477"	6	85189323	85189382	0	0	0	0
"A_16_P38105424"	6	86395283	86395342	0	0	0	0
"A_16_P37776273"	6	87816818	87816877	0	0	0	0
"A_14_P138186"	6	87865697	87865756	0	0	0	0
"A_16_P17876403"	6	94536783	94536842	0	0	0	0
"A_16_P01406961"	6	95474447	95474506	0	0	0	0
"A_16_P17894270"	6	97459909	97459968	0	0	0	0
"A_16_P38198165"	6	99988151	99988210	0	0	0	0
"A_16_P17810024"	6	100073823	100073882	0	0	0	0
"A_16_P17929156"	6	100971499	100971558	0	0	0	0
"A_16_P18111281"	6	106064922	106064981	0	0	0	0
"A_16_P01719257"	6	106456439	106456498	0	0	0	0
"A_16_P17791246"	6	109265672	109265731	0	0	0	0
"A_16_P38059766"	6	109756423	109756482	0	0	0	0
"A_14_P129566"	6	115840423	115840482	0	0	0	0
"A_16_P18085092"	6	116488494	116488551	0	0	0	0
"A_16_P17517977"	6	117288293	117288352	0	0	0	0
"A_16_P01760372"	6	117561349	117561408	0	0	0	0
"A_16_P01794681"	6	118309639	118309698	0	0	0	0
"A_16_P17560601"	6	119080233	119080292	0	0	0	0
"A_16_P17479830"	6	122776453	122776512	0	0	0	0
"A_16_P18109664"	6	123972585	123972644	0	0	0	0
"A_16_P17671719"	6	124484724	124484783	0	0	0	0
"A_16_P01762947"	6	128595805	128595864	0	0	0	0
"A_16_P17585895"	6	128654756	128654815	0	0	0	0
"A_16_P17530398"	6	129373107	129373166	0	0	0	0
"A_16_P37780351"	6	131426948	131427007	0	0	0	0
"A_16_P17718203"	6	131640195	131640254	0	0	0	0
"A_14_P115732"	6	132743748	132743807	0	0	0	0
"A_16_P01733617"	6	134560881	134560940	0	0	0	0
"A_14_P132929"	6	134972026	134972085	0	0	0	0
"A_16_P38262483"	6	135801213	135801272	0	0	0	0
"A_16_P18076099"	6	136473437	136473496	0	0	0	0
"A_16_P01572317"	6	138551513	138551572	0	0	0	0
"A_16_P17828139"	6	139437768	139437827	0	0	0	0
"A_16_P18047537"	6	142572270	142572329	0	0	0	0
"A_14_P124085"	6	144212921	144212980	0	0	0	0
"A_16_P18147584"	6	145996060	145996119	0	0	0	0
"A_16_P18143580"	6	150678288	150678347	0	0	0	0
"A_14_P101199"	6	151061086	151061145	0	0	0	0
"A_16_P17716372"	6	154532333	154532392	0	0	0	0
"A_16_P17805985"	6	154612993	154613052	0	0	0	0
"A_14_P126723"	6	154758865	154758924	0	0	0	0
"A_16_P18168986"	6	159023389	159023448	0	0	0	0
"A_16_P18035272"	6	159143836	159143895	0	0	0	0
"A_16_P17638070"	6	159230881	159230940	0	0	0	0
"A_16_P18141117"	6	160175470	160175529	0	0	0	0
"A_16_P17750432"	6	160753651	160753710	0	0	0	0
"A_16_P38261320"	6	164326731	164326790	0	0	0	0
"A_16_P01444940"	6	164789352	164789411	0	0	0	0
"A_16_P38203526"	6	166563771	166563815	0	0	0	0
"A_16_P38219878"	6	166769738	166769797	0	0	0	0
"A_16_P37544598"	6	167524365	167524423	0	0	0	0
"A_16_P17770309"	6	168762873	168762931	0	0	0	0
"A_16_P01637997"	6	170769547	170769606	0	0	0	0
"A_16_P01407712"	7	781892	781951	0	0	0	0
"A_16_P01805086"	7	902605	902664	0	0	0	0
"A_16_P17478873"	7	1464829	1464887	0	0	0	0
"A_16_P18091386"	7	2333471	2333526	0	0	0	0
"A_16_P17734630"	7	2999295	2999354	0	0	0	0
"A_16_P01789509"	7	5516571	5516630	0	0	0	0
"A_16_P18110010"	7	5861662	5861721	0	0	0	0
"A_16_P17736293"	7	6003240	6003299	0	0	0	0
"A_16_P17430497"	7	10114561	10114620	0	0	0	0
"A_16_P17961134"	7	11060592	11060651	0	0	0	0
"A_16_P37723274"	7	14660581	14660640	0	0	0	0
"A_14_P130565"	7	23208135	23208194	0	0	0	0
"A_16_P18150149"	7	26606071	26606130	0	0	0	0
"A_14_P110593"	7	27592968	27593027	0	0	0	0
"A_16_P18176169"	7	28325725	28325784	0	0	0	0
"A_16_P17771295"	7	30233789	30233848	0	0	0	0
"A_14_P137151"	7	32728307	32728366	0	0	0	0
"A_16_P18156435"	7	33279565	33279624	0	0	0	0
"A_16_P01655744"	7	35915549	35915608	0	0	0	0
"A_16_P17474446"	7	36042113	36042172	0	0	0	0
"A_16_P37512812"	7	36746175	36746234	0	0	0	0
"A_16_P17514073"	7	38518585	38518644	0	0	0	0
"A_16_P01456907"	7	40447533	40447592	0	0	0	0
"A_16_P17521027"	7	44264727	44264786	0	0	0	0
"A_16_P37506766"	7	44388806	44388865	0	0	0	0
"A_16_P17779800"	7	44572806	44572865	0	0	0	0
"A_16_P17995904"	7	44727416	44727475	0	0	0	0
"A_14_P120518"	7	47263341	47263400	0	0	0	0
"A_16_P17686259"	7	47393642	47393701	0	0	0	0
"A_16_P01708709"	7	47626734	47626793	0	0	0	0
"A_14_P109930"	7	48155254	48155313	0	0	0	0
"A_16_P18128133"	7	53531402	53531461	0	0	0	0
"A_16_P01422177"	7	55680018	55680077	0	0	0	0
"A_16_P17914629"	7	55914763	55914821	0	0	0	0
"A_14_P114973"	7	55935591	55935646	0	0	0	0
"A_16_P01709388"	7	62553122	62553181	0	0	0	0
"A_16_P01456695"	7	63114741	63114792	0	0	0	0
"A_16_P18101626"	7	63594818	63594877	0	0	0	0
"A_16_P01419645"	7	64259007	64259066	0	0	0	0
"A_16_P17804823"	7	65535460	65535519	0	0	0	0
"A_16_P17834827"	7	70439059	70439118	0	0	0	0
"A_16_P18011698"	7	70854380	70854439	0	0	0	0
"A_16_P17599364"	7	76501707	76501766	0	0	0	0
"A_16_P17855242"	7	77384117	77384176	0	0	0	0
"A_16_P01763702"	7	79527458	79527517	0	0	0	0
"A_16_P17648463"	7	80673898	80673957	0	0	0	0
"A_16_P01782201"	7	80974462	80974521	0	0	0	0
"A_14_P117954"	7	84366664	84366723	0	0	0	0
"A_16_P17691892"	7	84738295	84738354	0	0	0	0
"A_16_P38272368"	7	85640526	85640585	0	0	0	0
"A_16_P17589789"	7	89998867	89998926	0	0	0	0
"A_14_P104620"	7	94496559	94496618	0	0	0	0
"A_16_P17754693"	7	95600514	95600573	0	0	0	0
"A_14_P202179"	7	95645847	95645906	0	0	0	0
"A_14_P133826"	7	97515561	97515620	0	0	0	0
"A_16_P17988334"	7	98164261	98164320	0	0	0	0
"A_14_P126303"	7	98353362	98353421	0	0	0	0
"A_16_P37691372"	7	98637752	98637811	0	0	0	0
"A_16_P17998878"	7	100375751	100375804	0	0	0	0
"A_16_P38232561"	7	100881299	100881358	0	0	0	0
"A_16_P17929800"	7	101171016	101171075	0	0	0	0
"A_16_P38199667"	7	101317052	101317111	0	0	0	0
"A_16_P18102482"	7	105185692	105185751	0	0	0	0
"A_14_P122008"	7	106324175	106324234	0	0	0	0
"A_16_P18091474"	7	106464994	106465053	0	0	0	0
"A_16_P37888697"	7	106808144	106808203	0	0	0	0
"A_14_P135091"	7	107550265	107550324	0	0	0	0
"A_16_P38213936"	7	107644719	107644778	0	0	0	0
"A_16_P01642100"	7	112218980	112219039	0	0	0	0
"A_16_P17519156"	7	112719230	112719289	0	0	0	0
"A_16_P01774046"	7	113326722	113326781	0	0	0	0
"A_16_P17451250"	7	116691925	116691984	0	0	0	0
"A_16_P37693640"	7	116932890	116932949	0	0	0	0
"A_16_P17992374"	7	119095990	119096049	0	0	0	0
"A_16_P37869256"	7	119514228	119514287	0	0	0	0
"A_16_P17976425"	7	119540445	119540504	0	0	0	0
"A_16_P17662496"	7	119867350	119867409	0	0	0	0
"A_16_P01835524"	7	120556144	120556203	0	0	0	0
"A_16_P01642736"	7	122817371	122817430	0	0	0	0
"A_14_P106391"	7	123584677	123584736	0	0	0	0
"A_16_P01426621"	7	123975947	123976006	0	0	0	0
"A_16_P18074804"	7	127048353	127048412	0	0	0	0
"A_16_P01592223"	7	127057604	127057663	0	0	0	0
"A_14_P135852"	7	127232411	127232470	0	0	0	0
"A_16_P17483539"	7	127617266	127617322	0	0	0	0
"A_16_P17689777"	7	127681019	127681078	0	0	0	0
"A_16_P18102905"	7	127971934	127971993	0	0	0	0
"A_16_P01835049"	7	128225965	128226024	0	0	0	0
"A_16_P38116590"	7	129852550	129852609	0	0	0	0
"A_14_P135170"	7	131034232	131034291	0	0	0	0
"A_16_P01590859"	7	133676744	133676803	0	0	0	0
"A_14_P119092"	7	133783477	133783536	0	0	0	0
"A_16_P01821636"	7	134398209	134398268	0	0	0	0
"A_16_P17536750"	7	136206803	136206862	0	0	0	0
"A_16_P18041282"	7	138547742	138547801	0	0	0	0
"A_16_P17887232"	7	139386320	139386379	0	0	0	0
"A_16_P17743800"	7	139496510	139496569	0	0	0	0
"A_16_P38045223"	7	139957671	139957730	0	0	0	0
"A_16_P18184090"	7	140969561	140969620	0	0	0	0
"A_16_P01692397"	7	141448627	141448686	0	0	0	0
"A_16_P37857795"	7	142219076	142219135	0	0	0	0
"A_16_P17726798"	7	142586944	142587003	0	0	0	0
"A_16_P01643736"	7	143641762	143641821	0	0	0	0
"A_16_P18183856"	7	145716916	145716975	0	0	0	0
"A_16_P17538286"	7	146278042	146278101	0	0	0	0
"A_16_P17567223"	7	147582405	147582464	0	0	0	0
"A_14_P113096"	7	148174950	148175007	0	0	0	0
"A_16_P18057197"	7	149920469	149920527	0	0	0	0
"A_16_P18154981"	7	150234589	150234648	0	0	0	0
"A_16_P01681636"	7	150612117	150612176	0	0	0	0
"A_14_P119546"	7	150968937	150968996	0	0	0	0
"A_16_P01693474"	7	151508153	151508212	0	0	0	0
"A_16_P01833476"	7	153126335	153126387	0	0	0	0
"A_16_P17844163"	7	153500052	153500111	0	0	0	0
"A_16_P01704494"	7	154060870	154060929	0	0	0	0
"A_16_P01523083"	7	154541503	154541562	0	0	0	0
"A_16_P01803847"	7	157285324	157285383	0	0	0	0
"A_16_P38000595"	7	157490311	157490370	0	0	0	0
"A_16_P01417664"	7	157595539	157595598	0	0	0	0
