"ProbeName"	"chr"	"arm"	"loc"
ENSG00000108953	17	p	1194882
ENSG00000167193	17	p	1272974.5
ENSG00000132376	17	p	1350879
ENSG00000074660	17	p	1484105.5
ENSG00000167716	17	p	1588281.5
ENSG00000132386	17	p	1623750.5
ENSG00000108963	17	p	1893141.5
ENSG00000141258	17	p	2230086
ENSG00000007168	17	p	2527233.5
ENSG00000132361	17	p	2539633
ENSG00000180042	17	p	3236246
ENSG00000196689	17	p	3415720.5
ENSG00000040531	17	p	3510485.5
ENSG00000108392	17	p	3513510
ENSG00000083454	17	p	3523618
ENSG00000083457	17	p	3567558
ENSG00000004660	17	p	3724096
ENSG00000108405	17	p	3747123
ENSG00000074370	17	p	3780547.5
ENSG00000185722	17	p	4019089.5
ENSG00000132388	17	p	4121597.5
ENSG00000183018,ENSG00000132382	17	p	4389168
ENSG00000141456	17	p	4521818.5
ENSG00000161920	17	p	4582572.5
ENSG00000142484	17	p	4632812
ENSG00000182853	17	p	4635883
ENSG00000142507	17	p	4648217.5
ENSG00000129219	17	p	4665578
ENSG00000108556	17	p	4747282
ENSG00000108523	17	p	4789043
ENSG00000108515	17	p	4800123.5
ENSG00000091640	17	p	4803516
ENSG00000129250	17	p	4868413
ENSG00000167840	17	p	4957201
ENSG00000108561	17	p	5277053
ENSG00000072849	17	p	5321488
ENSG00000132530	17	p	6617096.5
ENSG00000161940	17	p	6872692
ENSG00000132514	17	p	6921620
ENSG00000141505	17	p	7020452
ENSG00000181885	17	p	7104394
ENSG00000181856	17	p	7131619
ENSG00000006047	17	p	7132600.5
ENSG00000197906	17	p	7156793
ENSG00000072818	17	p	7192779
ENSG00000174292	17	p	7233144.5
ENSG00000161958	17	p	7288779
ENSG00000170175	17	p	7301014
ENSG00000161955	17	p	7401717.5
ENSG00000129226	17	p	7424784.5
ENSG00000129245	17	p	7441618.5
ENSG00000141510	17	p	7513157
ENSG00000167874	17	p	7700012.5
ENSG00000182224	17	p	7710785.5
ENSG00000170037	17	p	7788621.5
ENSG00000179593	17	p	7892793.5
ENSG00000179477	17	p	7923727.5
ENSG00000179094,ENSG00000179036	17	p	7985924
ENSG00000179036	17	p	8004583
ENSG00000178921	17	p	8114368.5
ENSG00000125434	17	p	8134439.5
ENSG00000198844	17	p	8156203.5
ENSG00000166579	17	p	8311802
ENSG00000133026	17	p	8318610.5
ENSG00000166596	17	p	9487243
ENSG00000109047	17	p	9745535.5
ENSG00000007237	17	p	9754930.5
ENSG00000109061	17	p	10336482.5
ENSG00000133028	17	p	10524609.5
ENSG00000154957	17	p	11821730
ENSG00000065559	17	p	11987409
ENSG00000006740	17	p	12835534.5
ENSG00000109099	17	p	15074080.5
ENSG00000187607	17	p	15552291.5
ENSG00000170425	17	p	15819375.5
ENSG00000141040	17	p	16395053.5
ENSG00000197566	17	p	16466039
ENSG00000141030	17	p	17092096
ENSG00000133027	17	p	17353158.5
ENSG00000108557	17	p	17655175.5
ENSG00000171962	17	p	17859885
ENSG00000171953	17	p	17862388
ENSG00000108591	17	p	17951634
ENSG00000188522,ENSG00000154025	17	p	18813831
ENSG00000154016	17	p	18865276.5
ENSG00000166484,ENSG00000166482	17	p	19227036.5
ENSG00000072210	17	p	19520535.5
ENSG00000108602	17	p	19585468
ENSG00000128487	17	p	20158335.5
ENSG00000109016	17	p	21031369
ENSG00000178307	17	p	21042250.5
ENSG00000034152	17	p	21158936.5
ENSG00000141068	17	q	22952175.5
ENSG00000109083	17	q	23680377
ENSG00000160629	17	q	23713197
ENSG00000109072	17	q	23719319.5
ENSG00000004139	17	q	23749108
ENSG00000007216	17	q	23847854.5
ENSG00000109103	17	q	23898174
ENSG00000109107	17	q	23924462
ENSG00000007202	17	q	23965932.5
ENSG00000132581	17	q	24006565
ENSG00000109111	17	q	24050470.5
ENSG00000132591	17	q	24211861.5
ENSG00000167536	17	q	24249168
ENSG00000063015	17	q	24308220
ENSG00000160551	17	q	24860603
ENSG00000108262	17	q	24924941.5
ENSG00000108576	17	q	25551774
ENSG00000108578	17	q	25599825
ENSG00000108582	17	q	25817101.5
ENSG00000126860	17	q	26669330
ENSG00000108666	17	q	27682919
ENSG00000010244	17	q	27721260.5
ENSG00000176749	17	q	27840100.5
ENSG00000176658	17	q	27843853.5
ENSG00000108691	17	q	29607632
ENSG00000108688	17	q	29623155
ENSG00000172156	17	q	29638535.5
ENSG00000108700	17	q	29672238
ENSG00000181374	17	q	29709457
ENSG00000005156	17	q	30355670
ENSG00000073536	17	q	30482861
ENSG00000108733	17	q	30926162.5
ENSG00000129270	17	q	31117617.5
ENSG00000172660	17	q	31185147
ENSG00000161570	17	q	31222813
ENSG00000187456	17	q	31270295.5
ENSG00000161572	17	q	31289773.5
ENSG00000161573	17	q	31327707.5
ENSG00000161574	17	q	31334921.5
ENSG00000167236	17	q	31366983.5
ENSG00000006074	17	q	31422675.5
ENSG00000129277	17	q	31456925
ENSG00000108272	17	q	32031015
ENSG00000161326	17	q	32947375.5
ENSG00000141141	17	q	33055234.5
ENSG00000108753	17	q	33120597.5
ENSG00000108292	17	q	34127094.5
ENSG00000188260	17	q	34143276.5
ENSG00000108294	17	q	34166645.5
ENSG00000125691	17	q	34259927
ENSG00000002834	17	q	34331452
ENSG00000067191	17	q	34583911.5
ENSG00000108298	17	q	34614397
ENSG00000108306	17	q	34671094
ENSG00000125686	17	q	34817688.5
ENSG00000171532	17	q	35014838
ENSG00000131748	17	q	35071100
ENSG00000173991	17	q	35076085.5
ENSG00000141744	17	q	35079797.5
ENSG00000161395	17	q	35081322.5
ENSG00000141736	17	q	35138382
ENSG00000141738	17	q	35156937.5
ENSG00000186075	17	q	35286667.5
ENSG00000108342	17	q	35427380.5
ENSG00000008838	17	q	35432801
ENSG00000171475	17	q	35635171.5
ENSG00000094804	17	q	35708266
ENSG00000131747	17	q	35802456
ENSG00000141753	17	q	35866778
ENSG00000131746	17	q	35888238
ENSG00000126353	17	q	35963955
ENSG00000188633	17	q	36065925.5
ENSG00000167916	17	q	36108621.5
ENSG00000186393	17	q	36157965.5
ENSG00000167920	17	q	36244508.5
ENSG00000006059	17	q	36758017
ENSG00000131738	17	q	36773506.5
ENSG00000094796	17	q	36803577
ENSG00000171360	17	q	36846389
ENSG00000126337	17	q	36896102
ENSG00000171401	17	q	36911575.5
ENSG00000171346	17	q	36926090
ENSG00000171345	17	q	36933499
ENSG00000186847	17	q	36996446.5
ENSG00000173805	17	q	37132666
ENSG00000173801	17	q	37164570
ENSG00000141756	17	q	37228434
ENSG00000131473	17	q	37277243
ENSG00000173786	17	q	37380372.5
ENSG00000168256	17	q	37429931
ENSG00000108773	17	q	37518894
ENSG00000197723	17	q	37528583.5
ENSG00000108774	17	q	37530636.5
ENSG00000161610	17	q	37589683.5
ENSG00000126561	17	q	37717304.5
ENSG00000168610	17	q	37719110
ENSG00000177469	17	q	37808771
ENSG00000033627	17	q	37927956
ENSG00000108784	17	q	37949781
ENSG00000108786	17	q	37958914.5
ENSG00000108788,ENSG00000131470	17	q	37978062
ENSG00000141699	17	q	37985823
ENSG00000108797	17	q	38105019
ENSG00000131477	17	q	38168393
ENSG00000131475	17	q	38184889.5
ENSG00000176563,ENSG00000126581	17	q	38219856
ENSG00000131467	17	q	38245473
ENSG00000131471	17	q	38260637.5
ENSG00000131482	17	q	38317215
ENSG00000108825	17	q	38374070.5
ENSG00000068079	17	q	38419497
ENSG00000108828	17	q	38422216.5
ENSG00000108830	17	q	38433523.5
ENSG00000012048	17	q	38449953
ENSG00000175906	17	q	38832868.5
ENSG00000067596	17	q	38956896.5
ENSG00000005102	17	q	39073615
ENSG00000108861	17	q	39202011.5
ENSG00000161647	17	q	39234610.5
ENSG00000108852	17	q	39308520.5
ENSG00000108849	17	q	39374124
ENSG00000131096	17	q	39385755
ENSG00000108840	17	q	39517006
ENSG00000168591	17	q	39624493
ENSG00000108312	17	q	39643246.5
ENSG00000108309	17	q	39749553.5
ENSG00000030582	17	q	39785227
ENSG00000005961	17	q	39806863
ENSG00000186566	17	q	39829292
ENSG00000180340	17	q	39992075
ENSG00000182963	17	q	40237393
ENSG00000108883	17	q	40284028.5
ENSG00000136448	17	q	40535061
ENSG00000161714	17	q	40544967
ENSG00000181513	17	q	40577055.5
ENSG00000186834	17	q	40584695.5
ENSG00000184922	17	q	40680308.5
ENSG00000180249,ENSG00000006062	17	q	40697116.5
ENSG00000141342	17	q	40870871.5
ENSG00000186868	17	q	41457768
ENSG00000108379	17	q	42200113.5
ENSG00000108433	17	q	42367800.5
ENSG00000056345	17	q	42722687
ENSG00000141279	17	q	43054155
ENSG00000108424	17	q	43114142.5
ENSG00000198933	17	q	43144093.5
ENSG00000006025	17	q	43240196.5
ENSG00000167182	17	q	43361095.5
ENSG00000108439	17	q	43379019.5
ENSG00000005243	17	q	43460050
ENSG00000173917	17	q	43977639.5
ENSG00000120075	17	q	44023921.5
ENSG00000108511	17	q	44036394.5
ENSG00000120087	17	q	44039773.5
ENSG00000159184	17	q	44159200.5
ENSG00000136436	17	q	44296038
ENSG00000159199	17	q	44327262.5
ENSG00000159224	17	q	44393880.5
ENSG00000167083	17	q	44639120
ENSG00000108798	17	q	44654960.5
ENSG00000167085	17	q	44836664
ENSG00000064300	17	q	44946934.5
ENSG00000121067	17	q	45033577.5
ENSG00000121073	17	q	45135119.5
ENSG00000108813	17	q	45406845.5
ENSG00000005884	17	q	45522372
ENSG00000167100	17	q	45543856.5
ENSG00000108821	17	q	45616655.5
ENSG00000154920,ENSG00000108829	17	q	45813882.5
ENSG00000136457	17	q	45897544.5
ENSG00000167107	17	q	45906637.5
ENSG00000108848	17	q	46184225.5
ENSG00000141232	17	q	46295740.5
ENSG00000008294	17	q	46402678.5
ENSG00000011052	17	q	46593955
ENSG00000154975	17	q	47062973
ENSG00000141200	17	q	49256366
ENSG00000121060	17	q	52323960.5
ENSG00000121064	17	q	52436695.5
ENSG00000121057	17	q	52550648
ENSG00000136450	17	q	53437166
ENSG00000121053	17	q	53637132
ENSG00000005379	17	q	53733882
ENSG00000108372	17	q	53781065
ENSG00000108389	17	q	53927952
ENSG00000108387	17	q	53953489
ENSG00000141367	17	q	55122655
ENSG00000189050	17	q	55387647
ENSG00000167434	17	q	55590113.5
ENSG00000170832	17	q	55612652
ENSG00000062725	17	q	55875799
ENSG00000170836	17	q	56096253
ENSG00000121068	17	q	56840908
ENSG00000008283	17	q	58863777.5
ENSG00000136485	17	q	59020409
ENSG00000198909	17	q	59125805.5
ENSG00000136490	17	q	59129359.5
ENSG00000198231	17	q	59250129
ENSG00000087191	17	q	59262659.5
ENSG00000007312	17	q	59360442.5
ENSG00000007314	17	q	59370598.5
ENSG00000159752,ENSG00000108622	17	q	59434387
ENSG00000108854	17	q	59972321
ENSG00000154229	17	q	62231589
ENSG00000108878	17	q	62480407
ENSG00000198265	17	q	62504746
ENSG00000197170	17	q	62764855.5
ENSG00000154217	17	q	62840433.5
ENSG00000196704	17	q	63764121.5
ENSG00000141337,ENSG00000070540	17	q	63932515.5
ENSG00000108946	17	q	64030763.5
ENSG00000154262	17	q	64643450.5
ENSG00000153822	17	q	65641101.5
ENSG00000125398	17	q	67632218
ENSG00000180616	17	q	68678181.5
ENSG00000069188	17	q	68845837.5
ENSG00000172809	17	q	69717266.5
ENSG00000141540	17	q	69769427
ENSG00000170412	17	q	69954851
ENSG00000178789	17	q	70031361.5
ENSG00000186074	17	q	70207302.5
ENSG00000172794	17	q	70254875
ENSG00000109062	17	q	70277055.5
ENSG00000109066	17	q	70298278
ENSG00000109089	17	q	70512872
ENSG00000167862	17	q	70528545
ENSG00000180901	17	q	70573232.5
ENSG00000170190	17	q	70613618.5
ENSG00000125450	17	q	70743352
ENSG00000125447	17	q	70744515.5
ENSG00000125454	17	q	70788438.5
ENSG00000177885	17	q	70827608.5
ENSG00000177728	17	q	71007362
ENSG00000073350	17	q	71077930.5
ENSG00000188126	17	q	71100603.5
ENSG00000108469	17	q	71134735
ENSG00000108479	17	q	71265833.5
ENSG00000132475	17	q	71285775.5
ENSG00000092929	17	q	71335100
ENSG00000161533	17	q	71453741
ENSG00000108504	17	q	71509990
ENSG00000167880	17	q	71515329.5
ENSG00000175931	17	q	71897613
ENSG00000070731	17	q	72076888
ENSG00000070495	17	q	72229829
ENSG00000129657	17	q	72720861.5
ENSG00000141524	17	q	73624983.5
ENSG00000108639	17	q	73679312
ENSG00000167900	17	q	73682206.5
ENSG00000089685	17	q	73731730.5
ENSG00000184557	17	q	73865600.5
ENSG00000108669	17	q	74182135
ENSG00000108679	17	q	74479660
ENSG00000171302	17	q	74499531
ENSG00000167281	17	q	74607646
ENSG00000141570	17	q	75383111
ENSG00000171298	17	q	75704425
ENSG00000181523	17	q	75798780
ENSG00000171246	17	q	76056354
ENSG00000175866,ENSG00000181409	17	q	76705887
ENSG00000184009	17	q	77091947
ENSG00000186765	17	q	77114295.5
ENSG00000185504	17	q	77117816
ENSG00000185359	17	q	77279367
ENSG00000183048	17	q	77298355
ENSG00000169689	17	q	77569921
ENSG00000169738	17	q	77587138
ENSG00000169733	17	q	77600242
ENSG00000169727	17	q	77607883.5
ENSG00000176155	17	q	77705034
ENSG00000173762	17	q	77867391.5
ENSG00000141568	17	q	78153128
ENSG00000141580	17	q	78166115
ENSG00000141542	17	q	78210727.5
ENSG00000141556	17	q	78492198
