"chromosome:start"	"indicator"	".GeneName"	".DNARegion"	"ID"	"strand"	"end"
2:1002345	1	"SNTG2"	"2:946554-1371385"	"reg1"	"1"	"1002400"
X:1234556	0	NA	NA	"reg2"	"-1"	"1234556"
X:123456	0	NA	NA	"reg3"	"1"	"1234567"
