"Vertex1"	"Vertex2"	"width"	"color"	"newEdgeAttr"	"newNumeric"
"n0"	"n1"	1	""	"a1"	1
"n0"	"n2"	2.5	""	NA	NA
"n0"	"n3"	NA	""	NA	NA
"n1"	"n3"	NA	""	NA	NA
"n2"	"n3"	NA	""	NA	3
"n3"	"n4"	5	"yellow"	NA	NA
"n3"	"n5"	NA	""	"a3"	NA
"n3"	"n6"	0	"black"	NA	4
"n3"	"n7"	NA	""	NA	NA
"n4"	"n6"	NA	""	NA	NA
"n5"	"n6"	NA	""	NA	NA
"n6"	"n7"	9.9	""	NA	NA
"n7"	"n8"	NA	""	"a4"	NA
