"Node"	"Data"
"leaf0"	"small"
"leaf1"	"small"
"leaf2"	"small"
"leaf3"	"small"
"leaf4"	"large"
"leaf5"	"large"
"leaf6"	"large"
"leaf7"	"large"
"leaf8"	"large"
"leaf9"	"large"
"leaf10"	"large"
"leaf11"	"large"
"leaf12"	"large"
"leaf13"	"large"
"leaf14"	"large"