"Gene Set Category"	"Pathway"	"Set Size"	"Percent Up"	"NTk Stat"	"NTk q-value"	"NTk Rank"	"NEk Stat"	"NEk q-value"	"NEk Rank"	"Probes"
"SuperArray"	"Glucocorticoid Signaling I"	3	100	-2.71	0.186666666666667	2	-3.01	0	4	"3676,4170,694"
"KEGG:00350"	"Tyrosine metabolism"	3	0	2.13	0.35	7.5	3.39	0	1	"1644,7299,7306"
"GO:0019867"	"outer membrane"	3	100	-2.22	0.373333333333333	6	-3.18	0	3	"25813,55340,4170"
"GO:0015631"	"tubulin binding"	3	100	-2.33	0.336	4.5	-2.83	0	6	"11337,23710,23192"
"GO:0005507"	"copper ion binding"	5	0	2.13	0.35	7.5	2.91	0	5	"174,213,6678,7299,7306"
"KEGG:00500"	"Starch and sucrose metabolism"	3	100	-2.33	0.336	4.5	-2.71	0.0259502923976608	9	"178,2821,7360"
"GO:0008217"	"blood pressure regulation"	3	0	1.79	0.385	13	3.22	0	2	"183,1113,2266"
"KEGG:00903"	"Limonene and pinene degradation"	3	0	2.05	0.373333333333333	9	2.71	0.0291940789473684	7.5	"10202,11000,217"
"GO:0046982"	"protein heterodimerization activity"	4	75	-1.68	0.412631578947368	15.5	-2.51	0.0242224880382775	11	"336,915,3091,4170"
"KEGG:04520"	"Adherens junction"	4	100	-2.71	0.186666666666667	2	-1.99	0.0595508166969147	25	"1499,5879,60,71"
"SuperArray"	"Genome Stability / DNA Repair"	3	100	-1.68	0.412631578947368	15.5	-2.47	0.0397478070175439	12	"7329,2547,2956"
"KEGG:00620"	"Pyruvate metabolism"	3	66.67	-1.45	0.586666666666666	18	-2.66	0.0233552631578947	10	"217,2739,3939"
"GO:0005842"	"cytosolic large ribosomal subunit (sensu Eukaryota)"	5	100	-2.71	0.186666666666667	2	-1.93	0.056453634085213	28	"6128,6142,6158,6159,140801"
"GO:0006096"	"glycolysis"	3	100	-1.83	0.373333333333333	12	-2.22	0.0461570593149540	19	"2597,2821,3939"
"BioCyc"	"glycolysis III"	3	100	-1.83	0.373333333333333	12	-2.22	0.0461570593149540	19	"2821,2597,3939"
"KEGG:00380"	"Tryptophan metabolism"	3	0	1.61	0.448	17	2.47	0.0264985380116959	15	"1644,217,9666"
"GO:0019900"	"kinase binding"	4	100	-1.93	0.344615384615384	10.5	-2.05	0.0592543859649123	22	"694,8754,10935,10399"
"GO:0016282"	"eukaryotic 43S preinitiation complex"	3	100	-1.93	0.344615384615384	10.5	-1.93	0.056453634085213	28	"1968,6187,6223"
"GO:0016283"	"eukaryotic 48S initiation complex"	3	100	-1.93	0.344615384615384	10.5	-1.93	0.056453634085213	28	"1968,6187,6223"
"GO:0005843"	"cytosolic small ribosomal subunit (sensu Eukaryota)"	3	100	-1.93	0.344615384615384	10.5	-1.93	0.056453634085213	28	"1968,6187,6223"
"GO:0019825"	"oxygen binding"	3	0	1.07	0.617435897435897	33	2.71	0.0291940789473684	7.5	"213,3043,3050"
"SuperArray"	"G-Proteins / Signaling Molecules"	3	66.67	-1.3	0.601481481481481	22.5	-2.35	0.0275277008310249	18	"60,2597,2790"
"GO:0019901"	"protein kinase binding"	3	100	-1.71	0.428235294117647	14	-1.93	0.056453634085213	28	"8754,10935,10399"
"GO:0042803"	"protein homodimerization activity"	3	0	1.14	0.644848484848484	28	2.47	0.0264985380116959	15	"336,2191,3625"
"GO:0006879"	"iron ion homeostasis"	4	25	1.21	0.65655172413793	24	2.13	0.0510325292397661	20.5	"7018,30061,53940,6717"
"GO:0046916"	"transition metal ion homeostasis"	4	25	1.21	0.65655172413793	24	2.13	0.0510325292397661	20.5	"7018,30061,53940,6717"
"KEGG:04640"	"Hematopoietic cell lineage"	5	80	-1.21	0.634666666666666	25	-2.13	0.0510325292397661	20.5	"2993,3127,3655,3676,915"
"SuperArray"	"Dendritic / Antigen Presenting Cell"	9	66.67	-1.43	0.585454545454545	19	-1.83	0.0617050438596491	32.5	"5879,10410,50856,2214,4599,2205,27074,694,6362"
"GO:0009615"	"response to virus"	3	100	-1.34	0.6048	20.5	-1.83	0.0617050438596491	32.5	"4599,6387,10346"
"GO:0008076"	"voltage-gated potassium channel complex"	3	0	0.93	0.631489361702127	39.5	2.47	0.0264985380116959	15	"3764,7546,115207"
"GO:0051248"	"negative regulation of protein metabolism"	3	33.33	0.87	0.6496	42.5	2.47	0.0264985380116959	15	"336,3625,830"
"GO:0044419"	"interspecies interaction between organisms"	3	0	0.85	0.623396226415094	44.5	2.47	0.0264985380116959	15	"3115,59272,213"
"GO:0044403"	"symbiosis, encompassing mutualism through parasitism"	3	0	0.85	0.623396226415094	44.5	2.47	0.0264985380116959	15	"3115,59272,213"
"GO:0006334"	"nucleosome assembly"	4	75	-1.34	0.6048	20.5	-1.53	0.0926857585139319	41.5	"3017,8342,55506,85236"
"GO:0000786"	"nucleosome"	4	75	-1.34	0.6048	20.5	-1.53	0.0926857585139319	41.5	"3017,8342,55506,85236"
