"col1"	"col2"	"col3"	"col4"
"A"	"s1"	"koivu"	"j1"
"A"	"s1"	"koivu"	"j2"
"A"	"s2"	"koivu"	"j1"
"A"	"s2"	"koivu"	"j2"
"A"	"s3"	"koivu"	"j1"
"A"	"s3"	"koivu"	"j2"
"B"	"s1"	"kuusi"	"j3"
"C"	"s4"	"paju"	"j2"
"C"	"s4"	"paju"	"j3"
"D"	"s2"	"tammi"	"j1"
"D"	"s3"	"tammi"	"j1"
"D"	"s4"	"tammi"	"j1"
