ID	logFC	AveExpr	t	P.Value	adj.P.Val	B
ENSG00000179344	-2.52806623708921	7.35370009002702	-3.05991769415307	0.0341260348742744	0.362540714562296	-4.54271169606985
ENSG00000133111	-1.22457956196615	2.87663532388237	-3.04081569728206	0.0348048335094507	0.362540714562296	-4.54300239956809
ENSG00000127318	1.35442755862967	2.04665329517888	2.75067643562043	0.0472879192907343	0.362540714562296	-4.54782357333152
ENSG00000128604	-0.773231319504915	6.31100299659918	-2.02416550446834	0.107885180887596	0.62033979010368	-4.56380934739028
ENSG00000150201	1.54102420294097	2.47221261171767	1.30966890897562	0.255747713074674	0.985150743684764	-4.58529190359156
ENSG00000099617	1.17201832414827	3.08537733654924	1.23967787969223	0.278302446935394	0.985150743684764	-4.58759538654998
ENSG00000134243	-0.392393370313328	4.51760019211541	-0.983632767539218	0.37722909776777	0.985150743684764	-4.59596857942434
ENSG00000205030	0.281822414538673	3.1673075757691	0.731274960831534	0.502385175603415	0.985150743684764	-4.6036272518257
ENSG00000162909	-0.552468104123688	6.71039317837069	-0.727672013486635	0.504377654054986	0.985150743684764	-4.60372854553281
ENSG00000176231	0.30160461238345	3.48164311310505	0.71902261618731	0.509184305429742	0.985150743684764	-4.60397054545538
ENSG00000237541	-0.233852446522985	4.5892431116055	-0.608232189979991	0.573632489995528	0.985150743684764	-4.60690959196512
ENSG00000137285	-0.290185007474014	3.7777222574121	-0.588064904068743	0.585925617901	0.985150743684764	-4.60740920400079
ENSG00000069667	-0.466420054605968	5.12177097303373	-0.541451954608767	0.614974842401567	0.985150743684764	-4.60851734932857
ENSG00000109756	-0.25089827744447	5.3032396316822	-0.521183165112917	0.62787633105618	0.985150743684764	-4.60897787710973
ENSG00000179583	0.23361702759329	7.02727391425577	0.387158588566316	0.717000415635093	0.985150743684764	-4.61166291505103
ENSG00000167236	-0.166620701536963	1.7361156806829	-0.380766371363064	0.721404319489348	0.985150743684764	-4.61177419839623
ENSG00000204252	-0.161803907860111	7.29884709490499	-0.359829983889042	0.735917094737032	0.985150743684764	-4.61212729803191
ENSG00000145819	0.139920018554949	5.78666317817084	0.262556799820182	0.804967617810472	0.985150743684764	-4.61352946550964
ENSG00000162409	-0.238079196344566	2.01807106297963	-0.247139083486257	0.816129500795452	0.985150743684764	-4.61371426034201
ENSG00000172489	-0.0467120663859434	0.257588432907351	-0.128566674461045	0.903478223178259	0.985150743684764	-4.61477428569033
ENSG00000187701	0.0439369744771597	1.71053954675863	0.101597577059088	0.923628463561801	0.985150743684764	-4.61492368945392
ENSG00000142408	0.01703684142926	2.6085750983778	0.0358921736938589	0.972969623488934	0.985150743684764	-4.61514187747165
ENSG00000179094	0.02283895436964	3.80119124749795	0.0197138827263834	0.985150743684764	0.985150743684764	-4.61516365427329
