"ProbeID"	"CHR"	"CHRLOC"	"CHRLOCEND"
"cg00000029"	"16"	"53468351"	"53525560"
"cg00000108"	"3"	"37440968,37440968"	"37459865,37476988"
"cg00000109"	"3"	"171757418,171758344"	"172118492,172118492"
"cg00000165"	"NA"	"NA"	"NA"
"cg00000236"	"8"	"42249279"	"42263455"
"cg00000289"	"14"	"-69340840"	"-69446083"
"cg00000292"	"16"	"28889809"	"28915830"
"cg00000321"	"8"	"-41119476"	"-41166990"
"cg00000363"	"NA"	"NA"	"NA"
"cg00000622"	"15"	"-23004684"	"-23034427"
"cg00000658"	"9"	"139981379"	"140003639"
"cg00000714"	"19"	"54694119,54695104"	"54698394,54698394"
