Col1	Col2	Col3	Col4
sixth	2	aaa	40
nineth	2	bbb	0.1
forth	2	ddd	4
tvelveth	3	aaa	0
tenth	3	bbb	0
first	3	bbb	0.4
third	4	aaa	-1.5
eightth	4	bbb	99.9999
seventh	4	bbb	100
fifth	4	ccc	10.3465
eleventh	7	ccc	-0.2
second	7	ccc	0.2
