"SNP"	"pos"	"someColumn"	"Name"
"snp1"	"5"	"foo"	"feature1"
"snp2"	"8"	"bar"	"{{feature(3|33),feature(3|33)}}"
"snp3"	"15"	"foo"	NA
"snp4"	"5"	"bar"	"feature1"
"snp5"	"8"	"foo"	"{{feature(3|33),feature(3|33)}}"
"snp6"	"15"	"bar"	NA