"File"	"X"	"Y"	"Brightness"	"Gyration radius2"
"100826-002_spine1-D1R.tif"	12.4901	14.4356	0.000808905	0.0148551
"100826-002_spine1-D1R.tif"	13.0996	20.1816	0.00052863	0.00961167
"100826-002_spine1-D1R.tif"	13.0895	25.4428	0.00139204	0.0257678
"100826-002_spine1-D1R.tif"	14.3755	29.3194	0.000928478	0.017016
"100826-002_spine1-D1R.tif"	25.3498	25.3996	0.00206676	0.0389756
"100826-002_spine1-D1R.tif"	32.2625	27.2862	0.00222536	0.0406831
