GroupID	Type	SourceGroups	Description
"G2"	"median"	"S2"	"desc2 3'"
"G1"	"median"	"S1"	"desc1 3' 5'"
"G3"	"median"	"S3"	"desc3"
"G4"	"median"	"S4"	"desc4"
"G0"	"median"	"S0"	"desc0"
"G5"	"median"	"S5"	"desc5"
