"Entrez"	"FoldChange"
"55851"	0
"5663"	0
"5664"	0.485976533261716
"23385"	0
"51107"	0
"23621"	0
"25825"	0
"102"	0
"6868"	0
"7124"	0
"351"	0
"842"	0
"836"	0
"54205"	0
"317"	0
"100532726"	0
"126328"	0
"374291"	0
"4694"	0
"4695"	0
"4696"	0
"4697"	0
"4698"	0
"4700"	0
"4701"	0
"4702"	0
"4704"	0
"4705"	0
"4706"	0
"4707"	0
"4708"	0
"4709"	0
"4710"	0
"4711"	0
"4712"	0
"4713"	0
"4714"	0
"4715"	0
"4716"	0
"4717"	0
"4718"	0
"4719"	0
"4720"	0
"4722"	0
"4723"	0
"4724"	0
"4725"	0
"4726"	0
"4728"	0
"4729"	0
"4731"	0
"51079"	0
"54539"	0
"55967"	0
"56901"	-4.12541469286621
"6389"	0
"6390"	0
"6391"	0
"6392"	0
"10975"	0
"1537"	0
"27089"	0
"29796"	0
"440567"	0
"4519"	0
"7381"	0
"7384"	0
"7385"	0
"7386"	0
"7388"	0
"10476"	0
"4508"	0
"4509"	0
"498"	0
"506"	0
"509"	0
"513"	0
"514"	0
"515"	0
"516"	0
"517"	0
"518"	0
"522"	0
"539"	0
"125965"	0
"1327"	0
"1329"	0
"1337"	0
"1339"	0
"1340"	0
"1345"	0
"1346"	0
"1347"	0
"1349"	0
"1350"	0
"1351"	0
"170712"	0
"341947"	0
"4512"	0
"4513"	0
"4514"	0
"84701"	-0.987468382700438
"9167"	0
"9377"	0
"6263"	0
"3708"	0
"3709"	0
"3710"	0
"487"	0
"488"	0
"489"	0
"2776"	0
"23236"	0
"5330"	0
"5331"	0
"5332"	0
"2902"	0
"2903"	0
"2904"	0
"2905"	0
"2906"	0
"775"	0
"776"	0
"778"	0
"779"	0
"3028"	0
"823"	0
"824"	0
"8851"	0
"1020"	0
"4137"	0
"355"	0
"7132"	0
"8772"	0
"841"	0
"637"	0
"5594"	0
"5595"	0
"4842"	0
"9451"	0
"2081"	0
"22926"	0
"348"	0
"163688"	0
"51806"	0
"801"	0
"805"	0
"808"	0
"810"	0
"11261"	0
"5530"	0
"5532"	0
"5533"	0
"5534"	0
"5535"	0
"63928"	0
"572"	0
"3416"	0
"4311"	0
"322"	0
"4035"	0
"4023"	0
"2597"	0
"8883"	0
"840"	0
"2932"	0
"6622"	0
"3553"	0.588146889814248
