"Entrez"	"FoldChange"
"6716"	0
"367"	0
"4790"	0
"5970"	0
"4792"	0
"1027"	0
"5728"	0
"4824"	0
"354"	0
"596"	0
"595"	-2.09404041013211
"51176"	0
"6932"	0
"6934"	0
"83439"	0
"1387"	0
"2033"	0
"4193"	0
"1026"	0
"2308"	0
"1017"	0
"1499"	0
"1869"	0
"1870"	0
"1871"	0
"3265"	0
"3845"	0
"4893"	0
"7157"	0
"1956"	0
"2064"	0
"2260"	0
"2263"	0
"3480"	0
"3645"	0
"5156"	0
"5159"	0
"1147"	0
"3551"	0
"8517"	0
"572"	0
"842"	0
"10488"	0
"1385"	0
"148327"	0
"468"	0
"64764"	0
"84699"	0
"90993"	0
"9586"	1.46270857046429
"898"	0
"9134"	0
"1950"	0
"3479"	0
"3630"	0
"5154"	0
"5155"	-0.754966420067821
"56034"	0
"7039"	0
"80310"	-0.689672072671813
"5925"	0
"5170"	0
"6654"	0
"6655"	0
"2885"	0
"2932"	0
"3320"	0
"3326"	0
"7184"	0
"2475"	0
"10000"	0
"207"	0
"208"	0
"23533"	0
"5290"	0
"5291"	0
"5293"	0
"5294"	0
"5295"	0
"5296"	0
"8503"	0
"2950"	0
"5594"	0
"5595"	0
"5604"	0
"5605"	0
"369"	0
"5894"	0
"673"	0
