"Entrez"	"FoldChange"
"468"	0
"1649"	0
"5599"	0
"5601"	0
"5602"	0
"7186"	0
"4217"	0
"5609"	0
"1965"	0
"821"	0
"811"	0
"23645"	0
"2923"	0
"823"	0
"824"	0
"10952"	0
"23480"	0
"29927"	0
"55176"	0
"7415"	0
"1603"	0
"1650"	0
"201595"	0
"3703"	0
"6184"	0
"6185"	0
"7991"	0
"55741"	0
"80267"	0
"9695"	0
"10427"	0
"10483"	0
"10484"	0
"10802"	0
"9632"	0
"9871"	0
"10960"	0
"3998"	0
"7353"	0
"55666"	0
"30001"	0
"56605"	0
"10905"	0
"11253"	0
"4121"	0
"57134"	0
"23193"	0
"5589"	0
"7841"	0
"55757"	0
"56886"	0
"10299"	0
"84447"	0
"7326"	0
"7327"	0
"3309"	0
"11231"	0
"7095"	0
"578"	0
"581"	0
"1388"	0
"22926"	0
"2081"	0
"27102"	0
"440275"	0
"5610"	0
"9451"	0
"8720"	0
"51360"	0
"7494"	0
"7466"	0
"5886"	0
"5887"	0
"143630"	0
"29978"	0
"29979"	0
"50613"	0
"56893"	0.488045436423334
"55768"	0
"118424"	0
"51465"	0
"10277"	0
"55432"	0
"4287"	0
"92552"	0
"9373"	0
"3303"	0
"3304"	0
"3305"	0
"3306"	0
"3310"	0
"3312"	0
"6400"	0
"51009"	0
"79139"	0
"91319"	0
"10956"	0
"9709"	0
"27248"	0
"55829"	0
"9978"	0
"26232"	0
"26270"	0
"10477"	0
"51619"	0
"7321"	0
"7322"	0
"7323"	0
"7324"	0
"7325"	0
"10294"	0
"285126"	0
"3300"	0
"3301"	0
"3337"	0
"54788"	0
"80331"	0
"85479"	0
"10273"	0
"10130"	0
"10961"	0
"5034"	0
"81567"	0
"9601"	0
"51726"	0
"54431"	0
"5611"	0
"64215"	0
"55968"	0
"80700"	0
"258010"	0
"6500"	0
"8454"	0
"6048"	0
"91445"	0
"3320"	0
"3326"	0
"4780"	0
"22872"	0
"25956"	0
"6396"	0
"51128"	0
"56681"	0
"10113"	0
"7184"	0
"596"	0
"79748"	0
"23471"	0
"5071"	0
"10808"	0
"22824"	0
"23640"	0
"573"	0
"9532"	0
"1409"	0
"1410"	0
"10525"	0
"64374"	0
"10970"	0
"6238"	0
"10134"	0
"6745"	0
"6746"	0
"6747"	0
"6748"	0
"267"	0
