"Entrez"	"FoldChange"
"2161"	0
"2158"	0
"2162"	0
"2165"	0
"2147"	0
"2153"	1.45807134381661
"2159"	-0.31172769462741
"2155"	0
"7056"	0
"2149"	-1.23826021022526
"3053"	0
"2243"	0
"2244"	0
"2266"	0
"5627"	0
"5624"	0
"2"	0
"5104"	0
"7035"	0
"462"	0
"7450"	0
"2157"	0
"2152"	0
"2160"	0
"3827"	0
"3818"	0
"5329"	0
"1361"	0
"5340"	0
"5265"	0
"5345"	0
"5328"	0
"5327"	0
"5054"	0
"1380"	0
"623"	1.30435730977787
"624"	0
"3426"	0
"1675"	0
"718"	1.08713253926136
"629"	0
"3075"	-0.206545550350256
"1378"	0
"728"	0
"719"	0
"735"	0
"966"	0
"731"	0
"732"	0
"733"	0
"730"	0
"729"	0
"727"	0
"722"	0
"725"	0
"710"	0
"716"	0
"715"	0
"712"	0
"713"	0
"714"	0
"720"	0
"721"	0
"717"	0
"4153"	0
"10747"	0
"5648"	0
"4179"	0
"1604"	-0.832803513760509
