"Entrez"	"FoldChange"
"53833"	0
"3565"	0
"659"	0
"93"	0
"91"	0
"92"	0
"90"	0
"3588"	0
"58985"	0
"3561"	0
"3560"	0
"1439"	0
"3977"	0
"3572"	0
"8807"	0
"8809"	0
"3556"	-0.428801095057393
"7850"	0
"3554"	0
"55540"	0
"23765"	0
"657"	0
"658"	0
"269"	0
"7046"	0
"7048"	0
"3606"	0
"3553"	0.588146889814248
"3552"	0
"64806"	0
"27190"	0
"3605"	0
"8200"	0
"655"	0
"650"	0
"268"	0
"83729"	0
"3626"	0
"3625"	-0.694642804622879
"3624"	0
"7043"	0
"7042"	0
"7040"	0
"84957"	0
"55504"	1.40933038094918
"60401"	0
"10913"	0
"115650"	0
"23495"	0
"608"	0
"8784"	0
"7293"	0
"3604"	0
"943"	0
"939"	0
"958"	0
"355"	0
"8771"	0
"8764"	0
"4055"	0
"1896"	0
"10673"	0
"8741"	0
"8995"	0
"7292"	0
"8744"	0
"944"	0
"970"	0
"959"	0
"356"	0
"8740"	0
"4050"	0
"4049"	0
"163702"	0
"116379"	0
"53832"	0
"3587"	0
"3460"	0
"3459"	0
"3455"	0
"3454"	0
"2322"	0
"3815"	0
"1436"	0
"1956"	0
"4233"	0
"2324"	0
"3791"	0
"2321"	0
"5159"	0
"5156"	0
"55801"	0
"282618"	0
"282617"	0
"282616"	0
"50616"	0
"11009"	0
"50604"	0
"29949"	0
"3586"	0
"3458"	0
"338376"	0
"56832"	0
"3467"	0
"3456"	0
"3439"	0
"3440"	0
"3441"	0
"3442"	0
"3443"	0
"3444"	0
"3445"	0
"3446"	0
"3447"	0
"3448"	0
"3449"	0
"3451"	0
"3452"	0
"2323"	0
"4254"	0
"1435"	0
"1950"	0
"3082"	0
"2277"	0
"7424"	-0.344651284572198
"7422"	0
"7423"	0
"80301"	0.616434226760273
"5155"	-0.754966420067821
"5154"	0
"56034"	0
"4352"	0
"5618"	0
"2690"	0
"2057"	0
"64109"	0
"3575"	0
"50615"	0
"3601"	0
"3581"	0
"3566"	0
"3559"	0
"3568"	0
"3563"	0
"1438"	0
"7173"	0
"5617"	0
"2689"	0
"2688"	0
"2056"	0
"85480"	0
"59067"	0
"3600"	0
"3578"	0
"3574"	0
"3558"	0
"3567"	0
"3562"	0
"1437"	0
"3594"	0
"149233"	0
"3595"	0
"3597"	0
"3953"	0
"1441"	0
"1271"	0
"9180"	0
"3590"	0
"3570"	0
"51561"	0
"3592"	0
"3593"	0
"3596"	0
"3952"	-0.510362493632372
"1440"	0
"1489"	0
"23529"	0
"1270"	0
"3976"	0
"5008"	0.781886836269292
"3589"	0
"3569"	0
"2826"	0
"1232"	0
"1230"	0
"1234"	0
"729230"	0
"1236"	0
"1233"	0
"10803"	0
"1235"	0
"1237"	0
"6362"	0
"10850"	0
"56477"	0
"10344"	0
"6369"	0
"6356"	0
"6355"	0
"6359"	0
"6368"	0
"6360"	0
"6358"	0
"6352"	0
"6354"	0
"6357"	0
"414062"	0
"6348"	0
"6349"	0
"388372"	0
"6351"	0
"9560"	0
"6347"	0
"6366"	0
"6363"	0
"6367"	0
"6361"	0
"6370"	0
"6364"	0
"6346"	0
"1524"	0
"2829"	0
"10663"	0
"643"	0
"7852"	0.788653818515068
"2833"	0
"3577"	0
"3579"	0
"6376"	0
"6846"	0
"6375"	0
"9547"	0
"5196"	0
"5197"	0
"58191"	0.668134167337694
"10563"	0
"6387"	-2.42964206350611
"6373"	0
"3627"	0
"4283"	0
"3576"	0
"6372"	0
"5473"	0
"6374"	0
"7132"	0
"7133"	0
"4804"	0
"27242"	0
"51330"	0
"8718"	0
"8792"	0
"8742"	0
"8794"	0
"4982"	0
"8795"	0
"8743"	0
"8797"	0
"8793"	0
"9966"	0
"7124"	0
"2921"	0
"2920"	0
"2919"	0
"8600"	0
"57007"	0
