"Entrez"	"FoldChange"
"4615"	0
"3654"	0
"51135"	0
"7189"	0
"6885"	0
"10454"	0
"23118"	0
"1147"	0
"3551"	0
"8517"	0
"4792"	0
"4793"	0
"4790"	0
"5970"	0
"5594"	0
"5595"	0
"5599"	0
"5601"	0
"5602"	0
"1432"	0
"5600"	0
"5603"	0
"6300"	0
"5606"	0
"5608"	0
"2770"	0
"2771"	0
"2773"	0
"2775"	0.92358705252568
"3592"	0
"3593"	0
"7124"	0
"596"	0
"598"	0
"112401"	0
"329"	0
"330"	0
"331"	0
"79444"	0
"4843"	0
"3716"	0
"3717"	0
"6772"	0
"4261"	0
"345611"	0
"3108"	0.802422681235631
"3109"	0.689741006297559
"3111"	0.766872737548325
"3112"	0
"3113"	1.11337129924213
"3115"	0
"3117"	0
"3118"	0
"3119"	0
"3122"	1.12864190421133
"3123"	0
"3125"	0
"3126"	0
"3127"	0
"240"	0.699429245518561
"8651"	0
"54205"	0
"6774"	0
"842"	0
"836"	0
"841"	0
"23533"	0
"5290"	0
"5291"	0
"5293"	0
"5294"	0
"5295"	0
"5296"	0
"8503"	0
"5163"	0
"10000"	0
"207"	0
"208"	0
"3655"	0
"3688"	0
"100137049"	0
"123745"	0
"26279"	0
"30814"	0
"391013"	0
"50487"	0
"5319"	0
"5320"	0
"5321"	-1.17481384433887
"5322"	0
"64600"	0
"81579"	0
"8398"	0
"8399"	0
"84647"	0
"8681"	0
"10319"	0
"22798"	0
"284217"	0
"3908"	0
"3909"	0
"3910"	0
"3911"	0
"3912"	0
"3913"	0
"3914"	0
"3915"	0
"3918"	0
"23643"	0
"7099"	0
"3303"	0
"3304"	0
"3305"	0
"3306"	0
"3310"	0
"3312"	0
"7097"	0
"3458"	0
"3459"	0
"3460"	0
"1234"	0
"10105"	0
"959"	0
"958"	0
"572"	0
"7132"	0
"3949"	0
"3586"	0
"7040"	0
"7042"	0
"7043"	0
"3587"	0
"3588"	0
"7297"	0
