"Entrez"	"FoldChange"
"6570"	0
"6571"	0
"775"	0
"776"	0
"116443"	0
"116444"	0
"2902"	0
"2903"	0
"2904"	0
"2905"	0
"2906"	0
"2890"	0
"2891"	0
"2892"	0
"2893"	0
"1812"	0
"6531"	0
"4128"	0
"4129"	0.86640361482896
"7054"	0
"1644"	0
"163688"	0
"51806"	0
"801"	0
"805"	0
"808"	0
"810"	0
"814"	0
"815"	0
"816"	0
"817"	0
"818"	0
"84152"	0
"5566"	0
"5567"	0
"5568"	0
"5613"	0
"2778"	0
"111"	0
"10488"	0
"1385"	0
"1386"	0
"1388"	0
"148327"	0
"468"	0
"64764"	0
"84699"	0
"90993"	0
"9586"	1.46270857046429
"5499"	0
"5500"	0
"5501"	0
"11261"	0
"5530"	0
"5532"	0
"5533"	0
"5534"	0
"5535"	0
"63928"	0
"6804"	0
"5578"	0
"5579"	0
"5582"	0
"5173"	0
"23237"	0
"2353"	0
"2354"	1.57612550720964
"3065"	0
"23411"	0
"3725"	0.783066412229237
