"Entrez"	"FoldChange"
"3360"	0
"3362"	0
"3363"	0
"3356"	0.471474269344432
"3357"	0
"3358"	0
"6570"	0
"6571"	0
"2778"	0
"111"	0
"5566"	0
"5567"	0
"5568"	0
"5613"	0
"2776"	0
"23236"	0
"5330"	0
"5331"	0
"5332"	0
"3708"	0
"3709"	0
"3710"	0
"5578"	0
"5579"	0
"5582"	0
"1644"	0
"6532"	0
"773"	0
"774"	0
"3350"	0
"3351"	0
"3352"	0
"3354"	0
"3355"	0
"10681"	0
"2770"	0
"2771"	0
"2773"	0
"2775"	0.92358705252568
"2782"	0
"2783"	0
"2784"	0
"2785"	0
"2786"	0
"2787"	0
"2788"	0
"2790"	0
"2791"	0
"2792"	0
"2793"	0
"51764"	0
"54331"	0
"55970"	0
"59345"	0
"94235"	0
"10411"	0
"121278"	0
"7166"	0
"3361"	0
"4128"	0
"4129"	0.86640361482896
"100137049"	0
"123745"	0
"26279"	0
"30814"	0
"391013"	0
"50487"	0
"5319"	0
"5320"	0
"5321"	-1.17481384433887
"5322"	0
"64600"	0
"81579"	0
"8398"	0
"8399"	0
"84647"	0
"8681"	0
"775"	0
"776"	0
"778"	0
"779"	0
"170572"	0
"200909"	0
"285242"	0
"3359"	0
"9177"	0
"7220"	0
"1557"	0
"1558"	0
"1559"	0
"1562"	0
"1565"	0
"1573"	0
"260293"	0
"239"	0
"240"	0.699429245518561
"242"	0
"246"	0
"247"	0
"5742"	1.39013624694708
"5743"	0
"836"	0
"5594"	0
"5595"	0
"1843"	0
"3760"	0
"3762"	0
"3763"	0
"3765"	0
"3265"	0
"3845"	0
"4893"	0
"369"	0
"5894"	0
"673"	0
"5604"	0
"351"	0
"3751"	0
"3781"	0
"2560"	0
"2561"	0
"2562"	0
