"Entrez"	"FoldChange"
"1499"	0
"3265"	0
"3845"	0
"4893"	0
"7157"	0
"10297"	0
"324"	0
"8312"	0
"8313"	0.758443550166951
"2932"	0
"1495"	0
"1496"	0
"29119"	0
"2309"	0
"572"	0
"842"	0
"3611"	0
"2064"	0
"999"	0
"51176"	0
"6932"	0
"6934"	0
"83439"	0
"5728"	0
"5170"	0
"6654"	0
"6655"	0
"2885"	0
"4292"	0
"2002"	0
"1956"	0
"595"	-2.09404041013211
"4609"	0
"10000"	0
"207"	0
"208"	0
"23533"	0
"5290"	0
"5291"	0
"5293"	0
"5294"	0
"5295"	0
"5296"	0
"8503"	0
"1950"	0
"5594"	0
"5595"	0
"5604"	0
"5605"	0
"369"	0
"5894"	0
"673"	0
