"Entrez"	"FoldChange"
"3684"	0
"3688"	0
"3689"	0
"163688"	0
"51806"	0
"801"	0
"805"	0
"808"	0
"810"	0
"7099"	0
"23643"	0
"4790"	0
"5970"	0
"4615"	0
"114609"	0
"3661"	0
"10392"	0
"3552"	0
"3553"	0.588146889814248
"4843"	0
"3569"	0
"51561"	0
"653509"	0
"2770"	0
"2771"	0
"2773"	0
"3576"	0
"6372"	0
"6374"	0
"3678"	0.960324764251681
"387"	0
"1072"	0
"1073"	0
"836"	0
"840"	0
"715"	0
"716"	0
"712"	0
"713"	0
"714"	0
"722"	0
"725"	0
"710"	0
"720"	0
"721"	0
"717"	0
"718"	1.08713253926136
"727"	0
"1432"	0
"5600"	0
"5603"	0
"6300"	0
"5594"	0
"5595"	0
"2353"	0
"3725"	0.783066412229237
"5599"	0
"5601"	0
"5602"	0
"7124"	0
"3654"	0
"7189"	0
"353376"	0
"148022"	0
"929"	0
"3592"	0
"3593"	0
"3586"	0
"3394"	0
"3659"	0
"834"	0
"114548"	0
"29108"	0
"51135"	0
