"Entrez"	"FoldChange"
"100132941"	0
"100291917"	0
"10725"	0
"4772"	0
"4773"	0
"4775"	0
"4776"	0.467876014024643
"11261"	0
"5530"	0
"5532"	0
"5533"	0
"5534"	0
"5535"	0
"63928"	0
"2534"	0
"8743"	0
"3459"	0
"3460"	0
"5335"	0
"5336"	0
"27040"	0
"5551"	0
"3133"	0
"3458"	0
"1437"	0
"7124"	0
"5578"	0
"5579"	0
"5582"	0
"6452"	0
"2185"	0.434756550011974
"3937"	0
"6850"	0
"7535"	0
"3932"	0
"117157"	0
"4068"	0
"10870"	0
"919"	0
"2207"	0
"7305"	0
"5781"	0
"5777"	0
"3439"	0
"3440"	0
"3441"	0
"3442"	0
"3443"	0
"3444"	0
"3445"	0
"3446"	0
"3447"	0
"3448"	0
"3449"	0
"3451"	0
"3452"	0
"3456"	0
"637"	0
"836"	0
"3002"	0
"355"	0
"8793"	0
"8794"	0
"8795"	0
"8797"	0
"962"	0
"79465"	0
"80328"	0
"80329"	-0.214490749122876
"4277"	0
"100507436"	0
"3383"	0
"3384"	0
"3107"	0
"3106"	0
"3135"	0
"3105"	0
"23533"	0
"5290"	0
"5291"	0
"5293"	0
"5294"	0
"5295"	0
"5296"	0
"8503"	0
"5594"	0
"5595"	0
"5604"	0
"5605"	0
"369"	0
"5894"	0
"673"	0
"3265"	0
"3845"	0
"4893"	0
"6654"	0
"6655"	0
"2885"	0
"25759"	0
"399694"	0
"53358"	0
"6464"	0
"5058"	0
"5879"	0
"5880"	0
"5881"	0
"10451"	0
"7409"	0
"7410"	0
"356"	0
"3824"	0
"3454"	0
"3455"	0
"51744"	0
"100528032"	0
"22914"	0
"259197"	0
"9437"	0
"2214"	0
"2215"	0
"9436"	0
"3822"	0
"3823"	0
"3806"	0
"3808"	0
"3809"	0
"3810"	0
"3689"	0
"3683"	0
"3821"	0
"3802"	0
"3803"	0
"3804"	0
"3805"	0
"57292"	0
"3812"	0
"3811"	0
"135250"	0
"154064"	0
"353091"	0
