"Entrez"	"FoldChange"
"3382"	0
"940"	0
"3592"	0
"3593"	0
"1363"	0
"941"	0
"942"	0
"5798"	0
"5799"	0
"2571"	0
"2572"	0
"3329"	0
"3558"	0
"3630"	0
"356"	0
"3002"	0
"3108"	0.802422681235631
"3109"	0.689741006297559
"3111"	0.766872737548325
"3112"	0
"3113"	1.11337129924213
"3115"	0
"3117"	0
"3118"	0
"3119"	0
"3122"	1.12864190421133
"3123"	0
"3125"	0
"3126"	0
"3127"	0
"3105"	0
"3106"	0
"3107"	0
"3133"	0
"3134"	0
"3135"	0
"355"	0
"3458"	0
"5551"	0
"3552"	0
"3553"	0.588146889814248
"7124"	0
"4049"	0
