"Entrez"	"FoldChange"
"100506658"	0
"10686"	0
"1364"	0
"1365"	0
"1366"	0
"137075"	0
"149461"	0
"23562"	0
"24146"	0
"26285"	0
"49861"	0
"5010"	0
"51208"	0
"53842"	0
"7122"	-1.60957752575843
"9071"	-0.341288241770549
"9073"	0
"9074"	0
"9075"	0
"9076"	0
"9080"	0
"90952"	0
"4313"	-1.23497331433211
"4318"	0
"5781"	0
"1003"	0
"4267"	0
"5175"	0
"3689"	0
"1500"	0
"9564"	0
"4301"	0
"6494"	0
"50848"	0
"3683"	0
"3688"	0
"3676"	0
"58494"	0
"3684"	0
"23533"	0
"5290"	0
"5291"	0
"5293"	0
"5294"	0
"5295"	0
"5296"	0
"8503"	0
"1499"	0
"60"	0
"71"	0
"103910"	0
"10398"	0
"10627"	0
"29895"	0
"4633"	0
"4636"	0
"58498"	0
"93408"	-1.06084734512365
"6093"	0
"9475"	0
"5578"	0
"5579"	0
"5582"	0
"5747"	0
"387"	0
"83700"	0
"1432"	0
"5600"	0
"5603"	0
"6300"	0
"2909"	0
"394"	0
"1495"	0
"1496"	0
"29119"	0
"1536"	0
"27035"	0
"50508"	0
"1535"	0
"4688"	0
"5829"	0
"653361"	0
"5879"	0
"4689"	0
"5906"	0
"5908"	0
"10451"	0
"7409"	0
"7410"	0
"5880"	0
"4478"	0
"7430"	0
"10411"	0
"11069"	0
"3702"	0
"7294"	0
"83593"	0
"2185"	0.434756550011974
"6387"	-2.42964206350611
"7852"	0.788653818515068
"2770"	0
"2771"	0
"2773"	0
"7070"	0
"7412"	-0.458458921684412
"3383"	0
"5335"	0
"5336"	0
"998"	0
"399"	0
"7414"	0
"7408"	0
"81"	0
"87"	0.423452515689352
"88"	0
"89"	0
