"Entrez"	"FoldChange"
"598"	0
"596"	0
"329"	0
"330"	0
"4792"	0
"3654"	0
"51135"	0
"4615"	0
"7186"	0
"7188"	0
"8737"	0
"8717"	0
"3554"	0
"7132"	0
"3553"	0.588146889814248
"7124"	0
"8740"	0
"4055"	0
"7187"	0
"9020"	0
"1147"	0
"8517"	0
"3551"	0
"4791"	0
"5971"	0
"4790"	0
"5970"	0
"6885"	0
"10673"	0
"115650"	0
"959"	0
"958"	0
"100132941"	0
"100291917"	0
"5335"	0
"5579"	0
"5588"	0
"84433"	0
"8915"	0
"10892"	0
"7189"	0
"7128"	0
"7185"	0
"3576"	0
"6357"	0
"6387"	-2.42964206350611
"8792"	0
"8600"	0
"7099"	0
"10454"	0
"23118"	0
"257397"	0
"23586"	0
"114609"	0
"353376"	0
"148022"	0
"7535"	0
"27040"	0
"23643"	0
"929"	0
"3929"	0
"1457"	0
"1459"	0
"1460"	0
"5328"	0
"597"	0
"5336"	0
"6850"	0
"4067"	0
"695"	0
"3932"	0
"29760"	0
"472"	0
"142"	0
"51588"	0
"7329"	0
"8837"	0
"331"	0
"4616"	0
"7706"	0
"55367"	0
"5743"	0
"388372"	0
"6351"	0
"9560"	0
"7412"	-0.458458921684412
"2920"	0
"6366"	0
"6363"	0
"3383"	0
"4049"	0
"4050"	0
"23085"	0
