"Entrez"	"FoldChange"
"2916"	0
"2917"	0
"2918"	0
"2897"	-0.32995868172632
"2898"	0
"2899"	0
"2900"	0
"2901"	0
"2890"	0
"2891"	0
"2892"	0
"2893"	0
"116443"	0
"116444"	0
"2902"	0
"2903"	0
"2904"	0
"2905"	0
"2906"	0
"2911"	0
"2915"	0
"2912"	0
"2913"	0
"2914"	0
"6505"	0
"6511"	0
"775"	0
"776"	0
"6506"	0
"6507"	0
"107"	0
"108"	0
"109"	0
"111"	0
"112"	0
"113"	0
"114"	0
"115"	0
"196883"	0
"10991"	0
"54407"	0
"81539"	0
"246213"	0
"57030"	0
"57084"	0
"2778"	0
"5566"	0
"5567"	0
"5568"	0
"5613"	0
"2776"	0
"23236"	0
"5330"	0
"5331"	0
"5332"	0
"3708"	0
"3709"	0
"3710"	0
"5578"	0
"5579"	0
"5582"	0
"7220"	0
"10681"	0
"2770"	0
"2771"	0
"2773"	0
"2775"	0.92358705252568
"2782"	0
"2783"	0
"2784"	0
"2785"	0
"2786"	0
"2787"	0
"2788"	0
"2790"	0
"2791"	0
"2792"	0
"2793"	0
"51764"	0
"54331"	0
"55970"	0
"59345"	0
"94235"	0
"11261"	0
"5530"	0
"5532"	0
"5533"	0
"5534"	0
"5535"	0
"63928"	0
"27165"	0
"2744"	0
"2752"	0
"6512"	0
"156"	0
"157"	0
"773"	0
"3760"	0
"100137049"	0
"123745"	0
"26279"	0
"30814"	0
"391013"	0
"50487"	0
"5319"	0
"5320"	0
"5321"	-1.17481384433887
"5322"	0
"64600"	0
"81579"	0
"8398"	0
"8399"	0
"84647"	0
"8681"	0
"5337"	0
"5338"	0
"5594"	0
"5595"	0
"9454"	0
"9455"	0
"9456"	0
"1742"	0
"9229"	0
"22941"	0
"50944"	0
"85358"	0
