"file"	"commonCol1"	"f1Col1"	"commonCol2"	"f2Col1"	"f2Col2"
"file1"	"cc1_1"	"f1c1_1"	"cc2_1"	NA	NA
"file1"	"cc1_2"	"f1c1_2"	"cc2_2"	NA	NA
"file1"	"cc1_3"	"f1c1_3"	"cc2_3"	NA	NA
"file2"	"cc1_1"	NA	"cc2_1"	"f2c1_1"	"f2c2_1"
"file2"	"cc1_2"	NA	"cc2_2"	"f2c1_2"	"f2c2_2"
"file5"	"cc1_1"	NA	"cc2_1"	NA	NA
"file5"	"cc1_2"	NA	"cc2_2"	NA	NA
