"ProbeID"	"TargetID"	"ENTREZ_GENE_ID"
6450255	"7A5"	346389
2570615	"A1BG"	1
6370619	"A1BG"	1
2600039	"A1CF"	29974
2650615	"A1CF"	29974
5340672	"A1CF"	29974
1090041	"A26A1"	340441
6380561	"A26A1"	340441
7570255	"A26B1"	339010
4920477	"A26C1B"	728378
