"ProbeName"	"green1"	"green2"	"green3"	"green4"	"green5"	"green6"	"green7"	"green8"	"green9"
"test01287115"	9.78565647451708	10.2006779551095	9.77949727133978	10.2216680742429	10.0967006615888	9.99982106090522	10.3985962089070	10.3384255290743	11.4706243059005
"test03754683"	9.7755120128448	9.82504860792773	10.4587531465429	9.58490595648714	9.62997127394429	9.5565792413289	9.7324844275216	9.55850107335377	11.8790773753297
"test01832679"	9.94948692992589	9.7891350148322	9.65292561829681	9.90543649808663	9.71541362762855	9.81058866422575	9.7040333063741	9.8110128905589	8.49503273616544
"test02505971"	10.8217126063456	10.8938839526043	10.7621104177030	10.7792244209336	10.5654867457512	10.7883480287836	10.6789935477391	10.8308661329385	12.1033940393175
"test02474555"	10.1495400982333	10.1071843758772	10.0465961000926	10.423535102934	10.4021145885057	10.3542041936923	10.3344017923100	10.5459587191972	8.91331818990945
"test00629303"	9.98774293575195	9.96514358581826	9.89811022825033	10.0279695621924	9.67205224391124	9.952700047537	9.6837713588287	9.56863202589984	7.97575742065037
"test37853174"	9.65334024314718	10.3171717676093	10.3209742483826	10.1857885128202	10.0655507709550	10.1017984409276	10.1086577430976	9.97136392436193	11.3158124381624
"test20017828"	9.31466435464813	9.58964571650376	10.0577047792642	9.75036364591484	9.77482082090515	9.6771318747157	9.82923673452144	9.84974145599352	10.9594890758177
"test02535437"	9.4737670273479	10.4800429156866	10.6693652118938	10.7655935867002	10.6371365414538	10.5424292822431	10.6580498847151	10.7348747079237	11.9723103207489
"test20581683"	10.3374390449745	10.3839483205465	10.2580053348740	10.3661987055201	10.0517704085079	10.1877331121329	10.2982046530057	10.4098714008688	8.8123079284956
"test20955052"	9.99540961211594	10.6863079215424	10.8291288883847	10.6403290005894	10.5965317498955	10.5806062424355	10.6136485945824	10.5521147732990	9.0822642926456
"A_14_P128555"	NA	9.01299738475386	9.37169911781198	9.05259820852087	NA	NA	9.06714417911489	NA	10.1946251347836
"test00162593"	10.1446607917608	10.3415321660279	10.4832565238072	10.5286240594120	10.3628621579921	10.3708726352157	10.3986945326030	10.5335224681612	8.59924525538204
"test36838820"	10.5213285593272	10.098057092968	9.93896410138557	10.0617262531252	9.88324964843997	9.91231363993693	10.1731599217435	10.2796546852951	11.2959227218763
"test20899818"	10.3939792143025	10.3719976591763	10.2881370464616	10.266432849695	10.0739728262038	10.1461702408879	10.2532152073515	10.2875438629271	11.4164872145412
"test02637370"	10.7780048286556	10.3407380556207	9.90760725667622	10.1986881304336	9.95388185004188	10.0369236189900	10.1489785781278	10.3291976132615	8.36597417673762
"test19368380"	9.28267169440747	9.68993718831405	9.95900792626367	9.75577405301619	9.69769824869605	9.58560086473474	9.76579544882886	9.80869394585926	10.8795495557046
"A_14_P133606"	9.03383262471982	9.92457975378018	10.4290604112903	9.96506333411121	9.95477283689388	9.8344988607049	9.65202105748074	9.61511480918431	11.0804604730208
"A_14_P102836"	10.1837594255850	10.0847233645968	10.3635303041165	10.5274506150561	10.4761426768461	10.3212099499739	10.3448994940222	10.5502686932181	11.4692235988969
"test15098702"	9.26172025995444	9.41980852893928	9.6695432630644	9.68709166590695	9.63705156609632	9.54895461488953	9.34454469586954	9.40053579491264	10.6447215472180
"test15969558"	8.9881484043865	9.45870599009825	9.29050964849221	9.52792753354865	9.36973473926396	9.47923804018687	9.59014107407975	9.71817631081405	10.6937561309182
"test20770222"	10.0722223928898	10.3645133401177	10.3310680843446	10.3341917053570	10.3940253180828	10.4150477136363	10.3311834384407	10.3814110045250	8.69726090233405
"test00912675"	10.9249156555820	10.6141079822662	10.1572382869868	10.48410086271	10.1878135133345	10.3806785893520	10.2630531908032	10.2124599069821	9.03429221119297
"test18608406"	10.1212382138077	10.0322138248689	9.61925067626293	9.76672500903969	9.58421221694907	9.5488172856635	9.45909078266155	9.29493682069526	7.95249374043005
"A_14_P139917"	11.5968457163694	11.4182110348918	11.3777018308249	11.1078571867128	11.1513229363032	11.0987236473309	11.8618386954813	11.9545645723727	10.406409115849
"test21118993"	9.70547497815382	9.77225666698945	9.58337409853162	9.52989393818129	9.46465336136457	9.38281766972195	9.65837520506457	9.60552415017036	9.4275695099624
"test18322711"	10.0392494547726	10.3517398428724	10.0216088113049	10.1813237298063	10.1202715787193	10.0088655664326	10.3819214197267	10.1717985365454	11.6330601532974
"test20395992"	11.0384382394178	10.2854946963496	9.95400723513942	10.332431584536	10.0015545677323	10.2405492729363	10.0905014977837	10.2016522377727	8.02397607613243
"test36727985"	9.54204538363054	9.0505036020293	9.12125427572959	9.59115017113822	9.4778147186236	9.47303395883385	9.3224007255084	9.3259637945042	10.753717342696
"test21695163"	9.67829466736035	10.0134078227244	9.84932377600836	9.1167398032424	10.0078528298424	9.87640889386885	10.4736154515344	10.2221392029156	8.44285477566715
"test19308469"	10.6991455675511	10.6525447536683	10.5327435792298	10.7482339490372	10.5814774172047	10.5250910686231	10.7331483961132	10.8433063228340	11.9484157830047
"test35415437"	10.3638565974551	10.2977302168417	10.0742980361852	10.4059072926018	10.2830188796800	10.1932481294391	10.3445999515994	10.3540939725050	11.7797854156052
"A_14_P120675"	9.96093199669318	10.7899533511155	10.8222656897921	10.7772479167368	10.6108015497284	10.6747510497356	10.8437177409817	10.6800825627821	11.9616388819696
"test15581167"	9.78141217420869	9.66934465929932	9.81051443990648	9.72639001205927	9.64457627553743	9.7129508050837	9.73461191327427	9.86950393223938	10.9565816195669
"test00893317"	10.8739561937437	10.8906093271925	10.5243183885394	10.8387099427804	10.6275767451932	10.6916327396642	10.7457037321628	10.6855232255682	9.22092289367836
"test03097076"	9.52509478902158	9.85650629861114	9.8533098673377	9.93300366235959	9.74487637787997	9.64588769643672	10.0002338554368	9.97640230338295	10.7697254643812
"test03104827"	9.93743679418513	9.82382943351927	9.77637397450623	9.61780298373538	9.6125239044515	9.71295664979464	9.24864559751574	9.14623109524695	NA
"test41032506"	9.6450587157934	9.74218360535499	9.93124426119681	9.82734286303378	9.76236492892682	9.75774084747397	9.7639889552414	9.7418776578305	10.9599403699723
"test02064422"	10.4783156096622	10.5339020241016	10.3868928370907	10.4964134136384	10.3008066918039	10.361795769312	10.5928120610141	10.5589812272435	11.6816148515928
"test17441640"	11.7317314131344	10.7758061382115	10.7564287259330	11.1337606529912	10.9252042934997	11.0136192783437	11.0928066831681	11.0498322169614	11.7933480719181
