"RowName"	"CE.I.1."	"CD.I"	"A1D.I"	"CE.II"	"CD.II"	"J1D.I"	"J1E.II"	"J1D.II"	"CE.I.2."	"A1E.I"
"6450255"	84.9109452966166	87.346875376707	92.193523066331	88.380768607593	93.8035658485972	90.0748746667993	93.1111759619381	87.5297985747566	88.3714721446843	92.746164328243
"2570615"	96.0467304371267	106.091360410620	113.363725022891	107.968995312187	108.149852560697	110.616149392264	114.048595040308	109.799743606808	113.114735003298	112.780874364846
"6370619"	111.580874423478	103.880001110771	97.0906573793936	112.926101068559	106.063863652975	106.95728956244	105.825789674181	109.462407259055	100.102061550096	99.0016501152462
"2600039"	93.8645883859797	87.6201621264684	90.3102885967848	90.7271084866664	93.857845031568	92.6198966097671	91.3411236921912	92.714450346079	106.977298920312	90.4272877790363
"2650615"	104.029440303761	97.9618431518523	105.393806411590	92.9849809227526	98.0884713164497	99.4566395726779	99.523578858949	88.6159439930364	100.204418364803	101.037732963478
"5340672"	92.2628104976935	103.762860682519	88.626123542521	98.165352317128	90.1206807353398	97.2152826819368	99.0008150369964	97.5311842211463	91.3809049024308	87.4920680253131
"1090041"	98.5322755651913	97.9180421501432	91.7375533711421	91.8772741922965	111.321869990630	103.224639539429	94.9771232621836	97.6260481639445	96.723741081829	99.8285919100995
"6380561"	101.998347333344	91.9357032379126	98.420874042976	97.912460240671	85.8057747984956	91.4426137718641	90.4785815658908	94.130362655317	96.9950173199398	95.5506218053103
"7570255"	95.1863368690698	99.2658873499373	100.703021901796	99.923254035333	94.965851292976	88.1602901030325	97.7844504759152	103.191310400446	102.281616140245	86.5573725247703
"4920477"	104.122914253116	118.173842474281	100.961393008581	106.112179210743	100.283599897079	93.3537822468179	92.0614647713583	94.1136649192127	97.8154733291055	111.578976014771
