"Feature"	"Gene Symbol"	"Band"	"Candidate SNPs"	"confidence score(SD)"	"Keywords"
"LUNG CANCER"	"TP53"	"17p13.1"	"0"	"0.733"	"human lung cancer cell lines,non-small cell lung cancer nsclc,nsclc patients,cancer nsclc,human lung cancer cells,tobacco,carcinoma, non-small-cell lung,lung cancer patients,non-small-cell,non-small-cell lung,lung cancer,lung cancer cell lines,lung neoplasms,non-small,non-small cell,nsclc,nsclc cell,cell lung,human lung,non-small cell lung cancer,nonsmall,nonsmall cell,carcinoma, small cell,lung cancer cells,nsclc cells,small cell,lung cancers,sclc"
"LUNG CANCER"	"GSTM1"	"1p13.3"	"0"	"0.509"	"lung cancer risk,lung cancer patients,tobacco,lung cancer,non-small cell lung cancer nsclc,primary lung,non-small-cell,non-small-cell lung,lung neoplasms,cancer nsclc,carcinoma, non-small-cell lung,carcinoma, small cell,cell lung,non-small,non-small cell,small cell,small-cell,nsclc"
