"Mean"	"Median"	"File"
0.282353	0.282353	"testimg.png"
0.302397	0.305882	"testimg.png"
0.401459	0.396078	"testimg.png"
0.258824	0.258824	"testimg.png"
0.523529	0.523529	"testimg.png"
0.413943	0.415686	"testimg.png"
0.364706	0.364706	"testimg.png"
