"Vertex"	"title"	"newNodeAttr"
"v1"	"New title 1"	"new1"
"v2"	NA	"new2"
"v4"	NA	NA
"v5"	"New title 5"	NA
"v6"	NA	"new6"
"v7"	NA	NA
"v8"	NA	NA
"v9"	"New title 9"	"new9"
"v999"	"New title 999"	"new999"
