"Point Object"	"Data Object"	"Distance"
1	2	5.19359914702704
2	2	1.62330208217694
3	1	2.74078814394692
4	135	1.40075272621544
5	70	1.82351258015951
6	4	1.21889115592821
7	8	1.93371992025732
8	9	2.39583757588030
9	56	3.05256294447797
10	129	2.01799711099892
11	12	1.68651674168981
12	85	0.808633470739368
13	100	1.14749591720407
14	16	0.463862393388383
15	17	1.84524525470194
16	21	0.848815462865752
17	30	2.22563030398132
18	31	0.71082359274295
19	32	1.21348163562536
20	35	1.77625251864705
21	36	1.98278816064652
22	137	2.97217081104031
23	140	2.30965623849091
24	60	2.4554910547587
25	40	1.88141436159077
26	142	2.38526125193867
27	114	1.76103567539105
28	76	0.353696324549743
29	14	1.07296971998282
30	47	2.40695505774412
31	148	1.95640581935344
32	52	1.55876990284006
33	37	2.57998035845236
34	140	0.95465160660840
35	141	1.24519040311110
36	40	2.41316296382983
37	143	0.84828361412914
38	116	2.27498131860462
39	50	1.27710039151196
40	68	0.755893014916791
41	83	1.82261035331198
42	71	0.930716825892821
43	146	1.72832256827249
44	4	1.42184529397540
45	149	2.85513699321066
46	36	0.89664959153506
47	78	1.16027828558497
48	132	0.338451252029001
49	80	4.77855762756922
50	2	7.465681378816
51	59	1.86410635157976
52	83	0.443112807307575
53	51	3.18160249559872
54	6	0.26087410756915
55	89	3.12803551929961
56	121	4.40264981232893
57	21	4.21137455232849
58	90	0.280300642168369
59	141	0.110558626981339
60	143	1.39412511633641
61	115	1.88855662610365
62	14	2.07295710761221
63	130	1.26354696390756
64	149	2.39661484807217
65	133	2.14263273801181
66	99	2.60486563952922
67	50	3.97506966605618
68	54	3.26546114507584
69	38	1.82775204007546
70	54	0.976257020461315
71	102	3.98371532366458
72	18	1.70400355926858
73	105	3.47131549127993
74	105	4.81885399758075
75	108	2.24088921859158
76	113	2.93006056251403
77	111	3.23128682261417
78	3	3.36974382557488
79	115	1.96999616243281
80	120	1.22576389651515
81	120	3.31029267739274
82	121	1.6969111379209
83	109	3.27326446380368
84	127	4.12423394705005
85	127	1.59452010648972
86	42	1.22387391915998
87	130	2.12149518029149
88	15	0.0258489845061672
89	56	2.30204935872366
90	140	1.83671037455555
91	142	2.57145933858578
92	45	0.841326048568568
93	114	1.6526886730416
94	35	2.72218487616106
