"ProbeName"	"green1"	"green2"	"green3"	"green4"	"green5"	"green6"	"green7"	"green8"	"green9"
"test01287115"	9.91468600257863	10.2885823460709	9.81973921073091	10.2942046605708	10.1691057763913	10.1002074524724	10.5781508362329	10.5282856662585	11.4582848374067
"test03754683"	9.89008087094946	9.78232074140086	10.3780722895971	9.70271558594834	9.6118338254498	9.59345707275545	9.80585381860122	9.74986955504868	12.0128107342359
"test01832679"	10.1221123717645	9.73789653693401	9.72441153078045	10.1201931468873	9.72011242527996	9.84524336731467	9.78492437396053	9.86846538511082	8.36433264142237
"test02505971"	10.9748225058886	11.2298953176489	10.7834946642571	10.9832634248847	10.4613943307200	10.7821569138622	10.9361488845024	10.9885608812907	12.2953904111018
"test02474555"	10.2409888886516	10.2035620767077	9.96704846452195	10.2713537727041	10.2435964343921	10.2971264443731	10.4537406564631	10.8665783706274	8.68232757584217
"test00629303"	10.1399214806744	9.97601580889556	9.8731452146964	10.2533451835129	9.6683035954080	10.0485882456624	9.76995900050429	9.75736083889188	7.98748409666725
"test37853174"	9.64501092551648	10.3903913351095	10.1865696828196	10.3194022975961	10.1747273893228	10.1568436606597	10.0997512717474	9.9569113258595	11.2223374859235
"test20017828"	8.85705048584591	9.5123871285244	9.97269382730752	9.94217930444709	9.80735137186498	9.66093584896983	9.87588004916438	9.8812340011921	10.7769874358040
"test02535437"	9.00401126833254	10.5368734396798	10.6602998434391	10.9601063918241	10.6334790841488	10.4878625760022	10.9316721600017	10.9386102400377	12.1332629503771
"test20581683"	10.3174204984719	10.4417505732993	10.1013130717448	10.2734206615481	10.1668525066359	10.2020386886758	10.3870928634351	10.6696617173010	8.60335772500924
"test20955052"	10.1416439496503	10.9069359465183	10.8778188309719	10.7057245619744	10.5336096040435	10.5342481613460	10.8910422565264	10.8703403509106	8.82009900913006
"A_14_P128555"	NA	9.31705719661966	9.18486835900198	8.4515584725607	NA	NA	8.95774493934653	NA	9.94230100882998
"test00162593"	10.2372911405325	10.4070778987268	10.4114440689926	10.4144920616778	10.2067665488099	10.3091119867738	10.5783457114781	10.8589785460610	8.44175795312221
"test36838820"	10.5154475763574	10.1880597581868	9.89770482705108	10.2962339714268	9.96168744757353	10.0232987210145	10.1849683693065	10.4016998534114	11.1961387448158
"test20899818"	10.3451963671988	10.4316819274773	10.1428323727874	10.2851523372162	10.1781134192619	10.1809137441372	10.3097662858831	10.4202956076034	11.3800571238738
"test02637370"	10.9074214871071	10.4064456022651	9.87872718077691	10.3076760731290	10.0367648553936	10.1391587113689	10.1560919508587	10.5113502983371	8.26946868805452
"test19368380"	8.81795084230055	9.61630227126771	9.91040559461551	9.94885190168947	9.6916569419588	9.6048490003987	9.8304957345886	9.86797416917893	10.6917972747952
"A_14_P133606"	8.49117633158772	9.91200169188135	10.3321197620513	10.1856717999652	10.0380254176098	9.87992081185639	9.74616999786318	9.790287334412	10.9099409015734
"A_14_P102836"	10.2439787904523	10.1654129632604	10.2414898104172	10.4119647155594	10.3108344180350	10.2704314937524	10.4739646103108	10.8692122066885	11.4562772275647
"test15098702"	8.79068301825323	9.4659548501038	9.76356746495909	9.8656249833942	9.62337442974922	9.59070399256697	9.35439101065313	9.62866469321718	10.4530752032877
"test15969558"	8.44076498372128	9.47059144646499	9.05662371053148	9.54496261398886	9.07104373861272	9.56744556416996	9.69608563832021	9.84041770698936	10.5023266481402
"test20770222"	10.1882698856191	10.4253762548884	10.2007953475389	10.2761956761317	10.2362631052701	10.3388709848403	10.4475404574193	10.6111524076332	8.51544766347904
"test00912675"	11.1193426188798	10.7786482741931	10.0098192341308	10.3381765704651	10.1405602394250	10.3152459119326	10.3265266772285	10.2422928523049	8.78005035011333
"test18608406"	10.2157132800194	10.0838813264965	9.61677493267346	9.96235759869066	9.52466470837386	9.59065440608893	9.52482163996971	9.54487817205067	7.9708594997083
"A_14_P139917"	11.6490080373130	11.7460691110467	11.6389960638041	11.5908821403187	12.1163521028218	11.1686939299301	11.5450617809278	12.0748264294657	10.2053851709222
"test21118993"	9.7413581626233	9.71692674188144	9.5187298520574	9.55014096750501	9.27677445522324	9.53739417040934	9.75098676068714	9.78377599545835	9.15040337502489
"test18322711"	10.1630331957725	10.4152055820973	9.9483883225721	10.3234609487428	10.1585489335045	10.1124290819560	10.5451017975846	10.1650625461901	11.6841146171292
"test20395992"	11.1888953813105	10.36746622304	9.90723690720096	10.2767044496465	10.1165840374176	10.2174916934467	10.0810351931873	10.2144786925156	8.0220067460433
"test36727985"	9.2429795683429	9.33078568399176	8.77699313098465	9.71934463724858	9.30433568647756	9.56542750773495	9.32218285755819	9.56970932088088	10.5627668148990
"test21695163"	9.70071213288748	10.0545776636598	9.84378758221772	8.60096373545358	10.1232592462454	9.9652433860911	10.7164035829741	10.2672030784162	8.32585587312603
"test19308469"	10.7885186410508	10.8475937362195	10.4769073370022	10.9315145653512	10.4984210444690	10.4651343258808	10.9238837586517	10.9946690433356	12.1027590214516
"test35415437"	10.3280778221631	10.3766823638481	9.97108520935093	10.2691164090343	10.1423926393231	10.2033807988745	10.4733875380810	10.5570408976279	11.8813521213310
"A_14_P120675"	10.1323678747588	11.0913393023378	10.8680506434129	10.9799055986324	10.5664311961732	10.6437481794689	10.8998983543572	10.9117589734290	12.1196397192629
"test15581167"	9.90439156102664	9.5917564874937	9.82817548941904	9.91281688363786	9.63563941716265	9.70127945543068	9.80742783341155	9.89976089371982	10.7738309173049
"test00893317"	11.0536061054062	11.2279500167614	10.4656712344821	11.0900867147583	10.6080116931561	10.6643414066966	10.9203585930841	10.9140423363631	8.94162477670675
"test03097076"	9.1815341373028	9.82128602454526	9.84615318693526	10.1544517168807	9.75251591135867	9.63642896680887	10.0349060531701	9.9606620932845	10.5789759366503
"test03104827"	10.1113146887379	9.78082896670958	9.81896849478851	9.7780720883636	9.58011437831803	9.70128537037111	9.21694331951607	9.4215534359333	NA
"test41032506"	9.62073066823658	9.6797835910148	9.89337314561551	10.0353775629367	9.78097438252155	9.73889956466513	9.8291226698064	9.84777812893405	10.7774773892975
"test02064422"	10.4570995985214	10.6249138827015	10.2748703512842	10.3532638867298	10.1519942069216	10.3025852121499	10.8714545747009	10.8745364583404	11.7495155547114
"test17441640"	11.7607859378522	11.0644375745799	10.7757530862284	11.6369630346670	11.4693034491599	11.0617065639360	10.7354018794960	11.0922459908292	11.8994536099358
