"Row"	"Cluster"	"clusterProbs"
"13.zvi_1"	"1"	"0.0,1.0,0.0,0.0,0.0,0.0"
"13.zvi_10"	"2"	"0.0,0.0,0.0,0.0,1.0,0.0"
"13.zvi_100"	"1"	"0.0,1.0,0.0,0.0,0.0,0.0"
"13.zvi_101"	"1"	"0.0,1.0,0.0,0.0,0.0,0.0"
"13.zvi_102"	"3"	"0.0,0.0,0.0,1.0,0.0,0.0"
"13.zvi_103"	"2"	"0.0,0.0,0.0,0.0,1.0,0.0"
"13.zvi_104"	"2"	"0.0,0.0,0.0,0.0,1.0,0.0"
"13.zvi_105"	"1"	"0.0,1.0,0.0,0.0,0.0,0.0"
"13.zvi_106"	"1"	"0.0,1.0,0.0,0.0,0.0,0.0"
"13.zvi_107"	"3"	"0.0,0.0,0.0,1.0,0.0,0.0"
"13.zvi_108"	"3"	"0.0,0.0,0.0,1.0,0.0,0.0"
"13.zvi_109"	"4"	"1.0,0.0,0.0,0.0,0.0,0.0"
"13.zvi_11"	"1"	"0.0,1.0,0.0,0.0,0.0,0.0"
"13.zvi_110"	"1"	"0.0,1.0,0.0,0.0,0.0,0.0"
"13.zvi_111"	"2"	"0.0,0.0,0.0,0.0,1.0,0.0"
"13.zvi_112"	"3"	"0.0,0.0,0.0,1.0,0.0,0.0"
"13.zvi_113"	"3"	"0.0,0.0,0.0,1.0,0.0,0.0"
"13.zvi_114"	"3"	"0.0,0.0,0.0,1.0,0.0,0.0"
"13.zvi_115"	"2"	"0.0,0.0,0.0,0.0,1.0,0.0"
"13.zvi_116"	"5"	"0.0,0.0,1.0,0.0,0.0,0.0"
