"PROBE_ID"	"ENSEMBL"	"SYMBOL"
"ILMN_1762337"	"ENSG00000183742"	"MACC1"
"ILMN_2055271"	"NA"	"NA"
"ILMN_1736007"	"NA"	"NA"
"ILMN_2383229"	"ENSG00000148584"	"A1CF"
"ILMN_1806310"	"ENSG00000148584"	"A1CF"
"ILMN_1779670"	"ENSG00000148584"	"A1CF"
"ILMN_1653355"	"NA"	"NA"
"ILMN_1717783"	"ENSG00000198062"	"POTEH"
"ILMN_1705025"	"NA"	"NA"
"ILMN_1814316"	"ENSG00000078328"	"RBFOX1"
"ILMN_2359168"	"ENSG00000078328"	"RBFOX1"
"ILMN_1731507"	"ENSG00000078328"	"RBFOX1"
"ILMN_1787689"	"ENSG00000078328"	"RBFOX1"
"ILMN_3241953"	"ENSG00000134864"	"GGACT"
"ILMN_1745607"	"ENSG00000175899"	"A2M"
"ILMN_2136495"	"ENSG00000166535"	"A2ML1"
"ILMN_1668111"	"NA"	"NA"
"ILMN_2295559"	"NA"	"NA"
"ILMN_1735045"	"ENSG00000128274"	"A4GALT"
"ILMN_1680754"	"ENSG00000118017"	"A4GNT"
"ILMN_2375184"	"ENSG00000197085"	"NPSR1-AS1"
"ILMN_1659452"	"ENSG00000197085"	"NPSR1-AS1"
"ILMN_1767388"	"NA"	"NA"
"ILMN_1675204"	"NA"	"NA"
"ILMN_1673870"	"NA"	"NA"
"ILMN_1755321"	"ENSG00000094914"	"AAAS"
"ILMN_1698554"	"ENSG00000081760"	"AACS"
"ILMN_1814092"	"ENSG00000250420"	"AACSP1"
"ILMN_1760414"	"ENSG00000114771"	"AADAC"
"ILMN_2061446"	"ENSG00000144959"	"NCEH1"
"ILMN_1676336"	"ENSG00000144959"	"NCEH1"
"ILMN_1752884"	"ENSG00000197953,ENSG00000261846"	"AADACL2"
"ILMN_1660703"	"ENSG00000188984"	"AADACL3"
"ILMN_1668851"	"ENSG00000204518"	"AADACL4"
"ILMN_2270015"	"ENSG00000109576"	"AADAT"
"ILMN_1809959"	"ENSG00000109576"	"AADAT"
"ILMN_2357031"	"ENSG00000109576"	"AADAT"
"ILMN_1726986"	"ENSG00000109576"	"AADAT"
"ILMN_3237396"	"ENSG00000103591"	"AAGAB"
"ILMN_1688755"	"ENSG00000115977"	"AAK1"
"ILMN_1880387"	"ENSG00000115977"	"AAK1"
"ILMN_1689211"	"NA"	"NA"
"ILMN_1653165"	"ENSG00000127837"	"AAMP"
"ILMN_1729835"	"ENSG00000129673"	"AANAT"
"ILMN_1662364"	"ENSG00000090861"	"AARS"
"ILMN_1674698"	"ENSG00000124608"	"AARS2"
"ILMN_1700461"	"ENSG00000108825"	"PTGES3L-AARSD1"
"ILMN_1784269"	"ENSG00000157426"	"AASDH"
"ILMN_1698189"	"ENSG00000149313"	"AASDHPPT"
