"InternalProbe"	"ProbeName"	"GeneName"	"Description"	"Row"	"Col"	"ControlType"
"Internal_TEST1_1"	"TEST1"	"TEST1 (name)"	"TEST1 (desc)"	8	1	1
"Internal_TEST2_2"	"TEST2"	"TEST2 (name)"	"TEST2 (desc)"	7	2	0
"Internal_TEST3_3"	"TEST3"	"TEST3 (name)"	"TEST3 (desc)"	6	3	0
"Internal_TEST1_4"	"TEST1"	"TEST1 (name)"	"TEST1 (desc)"	5	4	0
"Internal_TEST2_5"	"TEST2"	"TEST2 (name)"	"TEST2 (desc)"	4	5	1
"Internal_ABCDE_6"	"ABCDE"	"ABCDE (name)"	"ABCDE (desc)"	3	6	1
"Internal_TEST1_7"	"TEST1"	"TEST1 (name)"	"TEST1 (desc)"	2	7	1
"Internal_TEST8_8"	"TEST8"	"TEST8 (name)"	"TEST8 (desc)"	1	8	0
