"Row"	"Distance"	"Point X"	"Point Y"	"Data X"	"Data Y"
1	4.8173	12.4901	14.4356	14.431	19.2529
2	1.3314	13.0996	20.1816	14.431	19.2529
3	2.7326	13.0895	25.4428	13.3012	28.1754
4	1.14400000000000	14.3755	29.3194	13.3012	28.1754
5	10.9188	25.3498	25.3996	14.431	19.2529
6	17.8315	32.2625	27.2862	14.431	19.2529
