RowId	clusterId	clusterProbs	Mean	StDev
zvi_1	"neg"	0.0,1.0,0.0,0.0,0.0,0.0	0.0607179	0.00291694
zvi_10	"neg"	0.0,1.0,0.0,0.0,0.0,0.0	0.0642856	0.00489155
zvi_100	"pos"	0.0,0.0,0.0,0.0,1.0,0.0	0.119424	0.0156506
zvi_101	"neg"	0.0,0.0,1.0,0.0,0.0,0.0	0.0955565	0.00767262
zvi_102	"pos"	0.0,0.0,0.0,1.0,0.0,0.0	0.112181	0.0219764
zvi_103	"pos"	0.0,0.0,0.0,0.0,1.0,0.0	0.0977286	0.0146857
zvi_104	"neg"	0.0,0.0,1.0,0.0,0.0,0.0	0.0969456	0.00732563
zvi_105	"neg"	0.0,0.0,1.0,0.0,0.0,0.0	0.0795715	0.00645841
zvi_106	"neg"	0.0,1.0,0.0,0.0,0.0,0.0	0.0826962	0.0038532
